

Test case 2
1 0 0 1 0 1 0 No 
0 0 1 1 0 0 0 No 
1 0 0 1 0 1 0 No 
0 0 1 1 0 0 0 No 
Results: 40 / 100
1 0 1 0 1 0 1 Yes 
1 0 0 1 0 0 0 No 
1 1 0 0 0 0 1 Yes 
1 1 1 1 0 0 0 No 
1 0 0 1 1 1 0 No 
1 0 1 0 1 0 1 Yes 
1 0 0 1 0 0 0 No 
1 1 0 0 0 0 1 Yes 
1 1 1 1 0 0 0 No 
1 0 0 1 1 1 0 No 
1 0 0 1 0 0 0 No 
1 1 1 1 0 0 0 No 
1 0 0 1 1 1 0 No 
1 0 1 0 1 0 1 Yes 
1 1 0 0 0 0 1 Yes 
Results: 80 / 100
1 0 1 1 1 0 1 Yes 
0 0 1 0 1 0 1 Yes 
1 0 0 0 0 0 1 Yes 
0 0 1 0 1 0 1 Yes 
1 1 1 1 0 0 1 No 
0 1 1 0 1 0 1 Yes 
0 1 0 1 0 1 0 Yes 
1 0 1 1 1 0 1 Yes 
0 0 1 1 1 0 0 No 
0 1 0 1 1 0 1 No 
1 0 1 1 1 0 1 Yes 
0 0 1 0 1 0 1 Yes 
1 0 0 0 0 0 1 Yes 
0 0 1 0 1 0 1 Yes 
1 1 1 1 0 0 1 No 
0 1 1 0 1 0 1 Yes 
0 1 0 1 0 1 0 Yes 
1 0 1 1 1 0 1 Yes 
0 0 1 1 1 0 0 No 
0 1 0 1 1 0 1 No 
1 0 1 1 1 0 1 Yes 
1 1 1 1 0 0 1 No 
0 1 0 1 0 1 0 Yes 
1 0 1 1 1 0 1 Yes 
0 0 1 1 1 0 0 No 
0 1 0 1 1 0 1 No 
0 1 0 1 0 1 0 Yes 
1 0 1 1 1 0 1 Yes 
1 1 1 1 0 0 1 No 
1 0 1 1 1 0 1 Yes 
0 0 1 1 1 0 0 No 
0 1 0 1 1 0 1 No 
1 0 1 1 1 0 1 Yes 
1 1 1 1 0 0 1 No 
1 0 1 1 1 0 1 Yes 
1 1 1 1 0 0 1 No 
1 0 1 1 1 0 1 Yes 
1 0 1 1 1 0 1 Yes 
0 0 1 1 1 0 0 No 
0 1 0 1 1 0 1 No 
0 0 1 0 1 0 1 Yes 
1 0 0 0 0 0 1 Yes 
0 0 1 0 1 0 1 Yes 
0 1 1 0 1 0 1 Yes 
Results: 80 / 100
1 0 1 0 1 0 1 Yes 
1 0 1 0 0 0 0 Yes 
1 0 1 1 0 0 1 No 
1 1 0 1 1 0 0 No 
1 1 0 1 1 1 1 Yes 
0 0 1 1 1 0 1 No 
1 0 0 0 0 0 1 Yes 
0 1 0 0 1 0 0 Yes 
0 0 0 0 1 0 0 Yes 
0 0 0 1 1 0 0 No 
0 1 0 0 1 1 0 Yes 
1 0 0 1 0 0 0 No 
1 0 1 1 1 0 1 Yes 
0 0 1 0 1 1 0 Yes 
1 0 1 1 1 0 0 No 
0 0 0 0 1 1 0 Yes 
0 0 0 0 0 0 1 Yes 
0 0 0 1 1 0 1 No 
0 0 0 0 1 1 1 Yes 
1 1 1 1 1 0 0 No 
1 0 1 0 1 0 1 Yes 
1 0 1 0 0 0 0 Yes 
1 0 1 1 0 0 1 No 
1 1 0 1 1 0 0 No 
1 1 0 1 1 1 1 Yes 
0 0 1 1 1 0 1 No 
1 0 0 0 0 0 1 Yes 
0 1 0 0 1 0 0 Yes 
0 0 0 0 1 0 0 Yes 
0 0 0 1 1 0 0 No 
0 1 0 0 1 1 0 Yes 
1 0 0 1 0 0 0 No 
1 0 1 1 1 0 1 Yes 
0 0 1 0 1 1 0 Yes 
1 0 1 1 1 0 0 No 
0 0 0 0 1 1 0 Yes 
0 0 0 0 0 0 1 Yes 
0 0 0 1 1 0 1 No 
0 0 0 0 1 1 1 Yes 
1 1 1 1 1 0 0 No 
1 0 1 1 0 0 1 No 
1 1 0 1 1 0 0 No 
1 1 0 1 1 1 1 Yes 
0 0 1 1 1 0 1 No 
0 0 0 1 1 0 0 No 
1 0 0 1 0 0 0 No 
1 0 1 1 1 0 1 Yes 
1 0 1 1 1 0 0 No 
0 0 0 1 1 0 1 No 
1 1 1 1 1 0 0 No 
1 1 0 1 1 1 1 Yes 
1 0 1 1 0 0 1 No 
1 1 0 1 1 0 0 No 
0 0 1 1 1 0 1 No 
0 0 0 1 1 0 0 No 
1 0 0 1 0 0 0 No 
1 0 1 1 1 0 1 Yes 
1 0 1 1 1 0 0 No 
0 0 0 1 1 0 1 No 
1 1 1 1 1 0 0 No 
1 1 0 1 1 0 0 No 
0 0 0 1 1 0 0 No 
1 0 0 1 0 0 0 No 
1 0 1 1 1 0 0 No 
1 1 1 1 1 0 0 No 
1 0 1 1 0 0 1 No 
0 0 1 1 1 0 1 No 
1 0 1 1 1 0 1 Yes 
0 0 0 1 1 0 1 No 
1 0 1 1 0 0 1 No 
1 0 1 1 1 0 1 Yes 
1 0 1 1 1 0 1 Yes 
1 0 1 1 0 0 1 No 
0 0 1 1 1 0 1 No 
0 0 0 1 1 0 1 No 
1 0 1 0 1 0 1 Yes 
1 0 1 0 0 0 0 Yes 
1 0 0 0 0 0 1 Yes 
0 1 0 0 1 0 0 Yes 
0 0 0 0 1 0 0 Yes 
0 1 0 0 1 1 0 Yes 
0 0 1 0 1 1 0 Yes 
0 0 0 0 1 1 0 Yes 
0 0 0 0 0 0 1 Yes 
0 0 0 0 1 1 1 Yes 
Results: 86 / 100
1 1 1 0 0 0 0 Yes 
0 0 1 1 1 1 1 Yes 
1 0 0 1 0 0 0 No 
0 0 1 1 1 1 0 Yes 
0 0 1 0 0 1 0 Yes 
1 1 0 1 0 0 0 No 
1 1 1 1 1 1 1 Yes 
1 0 1 0 0 1 1 Yes 
0 0 0 1 1 0 0 No 
0 1 1 1 0 0 1 No 
0 0 0 0 0 0 0 Yes 
1 1 1 1 1 0 0 No 
1 1 0 1 1 1 0 No 
0 1 0 1 0 1 0 Yes 
1 0 0 0 0 0 1 Yes 
1 0 0 1 0 0 0 No 
0 1 0 0 0 1 0 Yes 
0 0 0 1 0 0 1 No 
1 1 0 1 1 1 1 Yes 
0 0 0 1 1 0 1 No 
1 0 1 0 1 0 1 Yes 
1 0 0 0 0 1 1 Yes 
0 1 0 0 0 1 0 Yes 
0 1 0 0 1 1 0 Yes 
1 1 1 1 1 1 0 No 
1 0 1 0 1 1 0 No 
0 0 1 1 0 0 0 No 
1 1 1 0 0 0 0 Yes 
0 0 1 1 0 1 0 Yes 
0 1 0 1 0 1 1 Yes 
0 1 0 0 1 0 0 Yes 
1 0 1 1 0 0 1 No 
1 0 1 0 1 0 0 No 
1 1 0 0 0 0 1 Yes 
1 0 1 1 1 0 1 Yes 
0 1 1 0 1 1 1 Yes 
1 1 0 1 0 0 0 No 
0 0 1 0 1 1 0 Yes 
0 1 1 0 1 0 1 Yes 
0 1 1 1 0 1 0 Yes 
0 0 1 0 0 0 1 Yes 
1 1 0 1 1 0 0 No 
0 0 1 1 1 0 0 No 
1 0 0 1 1 1 0 No 
1 0 0 1 0 1 0 No 
0 0 0 1 1 0 1 No 
1 1 1 1 0 1 0 No 
1 1 1 0 1 0 0 No 
1 0 0 0 1 0 0 No 
0 0 1 1 1 0 1 No 
1 1 1 0 0 0 0 Yes 
0 0 1 1 1 1 1 Yes 
1 0 0 1 0 0 0 No 
0 0 1 1 1 1 0 Yes 
0 0 1 0 0 1 0 Yes 
1 1 0 1 0 0 0 No 
1 1 1 1 1 1 1 Yes 
1 0 1 0 0 1 1 Yes 
0 0 0 1 1 0 0 No 
0 1 1 1 0 0 1 No 
0 0 0 0 0 0 0 Yes 
1 1 1 1 1 0 0 No 
1 1 0 1 1 1 0 No 
0 1 0 1 0 1 0 Yes 
1 0 0 0 0 0 1 Yes 
1 0 0 1 0 0 0 No 
0 1 0 0 0 1 0 Yes 
0 0 0 1 0 0 1 No 
1 1 0 1 1 1 1 Yes 
0 0 0 1 1 0 1 No 
1 0 1 0 1 0 1 Yes 
1 0 0 0 0 1 1 Yes 
0 1 0 0 0 1 0 Yes 
0 1 0 0 1 1 0 Yes 
1 1 1 1 1 1 0 No 
1 0 1 0 1 1 0 No 
0 0 1 1 0 0 0 No 
1 1 1 0 0 0 0 Yes 
0 0 1 1 0 1 0 Yes 
0 1 0 1 0 1 1 Yes 
0 1 0 0 1 0 0 Yes 
1 0 1 1 0 0 1 No 
1 0 1 0 1 0 0 No 
1 1 0 0 0 0 1 Yes 
1 0 1 1 1 0 1 Yes 
0 1 1 0 1 1 1 Yes 
1 1 0 1 0 0 0 No 
0 0 1 0 1 1 0 Yes 
0 1 1 0 1 0 1 Yes 
0 1 1 1 0 1 0 Yes 
0 0 1 0 0 0 1 Yes 
1 1 0 1 1 0 0 No 
0 0 1 1 1 0 0 No 
1 0 0 1 1 1 0 No 
1 0 0 1 0 1 0 No 
0 0 0 1 1 0 1 No 
1 1 1 1 0 1 0 No 
1 1 1 0 1 0 0 No 
1 0 0 0 1 0 0 No 
0 0 1 1 1 0 1 No 
0 0 1 1 1 1 1 Yes 
1 0 0 1 0 0 0 No 
0 0 1 1 1 1 0 Yes 
1 1 0 1 0 0 0 No 
1 1 1 1 1 1 1 Yes 
0 0 0 1 1 0 0 No 
0 1 1 1 0 0 1 No 
1 1 1 1 1 0 0 No 
1 1 0 1 1 1 0 No 
0 1 0 1 0 1 0 Yes 
1 0 0 1 0 0 0 No 
0 0 0 1 0 0 1 No 
1 1 0 1 1 1 1 Yes 
0 0 0 1 1 0 1 No 
1 1 1 1 1 1 0 No 
0 0 1 1 0 0 0 No 
0 0 1 1 0 1 0 Yes 
0 1 0 1 0 1 1 Yes 
1 0 1 1 0 0 1 No 
1 0 1 1 1 0 1 Yes 
1 1 0 1 0 0 0 No 
0 1 1 1 0 1 0 Yes 
1 1 0 1 1 0 0 No 
0 0 1 1 1 0 0 No 
1 0 0 1 1 1 0 No 
1 0 0 1 0 1 0 No 
0 0 0 1 1 0 1 No 
1 1 1 1 0 1 0 No 
0 0 1 1 1 0 1 No 
0 0 1 1 1 1 1 Yes 
0 0 1 1 1 1 0 Yes 
1 1 1 1 1 1 1 Yes 
1 1 0 1 1 1 0 No 
0 1 0 1 0 1 0 Yes 
1 1 0 1 1 1 1 Yes 
1 1 1 1 1 1 0 No 
0 0 1 1 0 1 0 Yes 
0 1 0 1 0 1 1 Yes 
0 1 1 1 0 1 0 Yes 
1 0 0 1 1 1 0 No 
1 0 0 1 0 1 0 No 
1 1 1 1 0 1 0 No 
1 1 1 1 1 1 1 Yes 
1 1 0 1 1 1 0 No 
1 1 0 1 1 1 1 Yes 
1 1 1 1 1 1 0 No 
1 0 0 1 1 1 0 No 
1 0 0 1 0 1 0 No 
1 1 1 1 0 1 0 No 
1 1 0 1 1 1 0 No 
1 1 1 1 1 1 0 No 
1 0 0 1 1 1 0 No 
1 0 0 1 0 1 0 No 
1 1 1 1 0 1 0 No 
1 1 1 1 1 1 1 Yes 
1 1 0 1 1 1 1 Yes 
0 0 1 1 1 1 1 Yes 
0 0 1 1 1 1 0 Yes 
0 1 0 1 0 1 0 Yes 
0 0 1 1 0 1 0 Yes 
0 1 0 1 0 1 1 Yes 
0 1 1 1 0 1 0 Yes 
1 0 0 1 0 0 0 No 
1 1 0 1 0 0 0 No 
0 0 0 1 1 0 0 No 
0 1 1 1 0 0 1 No 
1 1 1 1 1 0 0 No 
1 0 0 1 0 0 0 No 
0 0 0 1 0 0 1 No 
0 0 0 1 1 0 1 No 
0 0 1 1 0 0 0 No 
1 0 1 1 0 0 1 No 
1 0 1 1 1 0 1 Yes 
1 1 0 1 0 0 0 No 
1 1 0 1 1 0 0 No 
0 0 1 1 1 0 0 No 
0 0 0 1 1 0 1 No 
0 0 1 1 1 0 1 No 
1 0 0 1 0 0 0 No 
1 1 0 1 0 0 0 No 
0 0 0 1 1 0 0 No 
1 0 0 1 0 0 0 No 
0 0 0 1 0 0 1 No 
0 0 0 1 1 0 1 No 
1 1 0 1 0 0 0 No 
1 1 0 1 1 0 0 No 
0 0 0 1 1 0 1 No 
0 1 1 1 0 0 1 No 
1 1 1 1 1 0 0 No 
0 0 1 1 0 0 0 No 
1 0 1 1 0 0 1 No 
1 0 1 1 1 0 1 Yes 
0 0 1 1 1 0 0 No 
0 0 1 1 1 0 1 No 
1 1 1 1 1 0 0 No 
1 0 1 1 0 0 1 No 
1 0 1 1 1 0 1 Yes 
1 1 1 1 1 0 0 No 
1 0 1 1 0 0 1 No 
1 0 1 1 1 0 1 Yes 
1 0 1 1 1 0 1 Yes 
1 0 1 1 0 0 1 No 
0 1 1 1 0 0 1 No 
0 0 1 1 0 0 0 No 
0 0 1 1 1 0 0 No 
0 0 1 1 1 0 1 No 
1 1 1 0 0 0 0 Yes 
0 0 1 0 0 1 0 Yes 
1 0 1 0 0 1 1 Yes 
0 0 0 0 0 0 0 Yes 
1 0 0 0 0 0 1 Yes 
0 1 0 0 0 1 0 Yes 
1 0 1 0 1 0 1 Yes 
1 0 0 0 0 1 1 Yes 
0 1 0 0 0 1 0 Yes 
0 1 0 0 1 1 0 Yes 
1 0 1 0 1 1 0 No 
1 1 1 0 0 0 0 Yes 
0 1 0 0 1 0 0 Yes 
1 0 1 0 1 0 0 No 
1 1 0 0 0 0 1 Yes 
0 1 1 0 1 1 1 Yes 
0 0 1 0 1 1 0 Yes 
0 1 1 0 1 0 1 Yes 
0 0 1 0 0 0 1 Yes 
1 1 1 0 1 0 0 No 
1 0 0 0 1 0 0 No 
1 0 1 0 1 0 1 Yes 
0 1 0 0 1 1 0 Yes 
1 0 1 0 1 1 0 No 
0 1 0 0 1 0 0 Yes 
1 0 1 0 1 0 0 No 
0 1 1 0 1 1 1 Yes 
0 0 1 0 1 1 0 Yes 
0 1 1 0 1 0 1 Yes 
1 1 1 0 1 0 0 No 
1 0 0 0 1 0 0 No 
1 0 1 0 1 0 1 Yes 
1 0 1 0 1 1 0 No 
1 0 1 0 1 0 0 No 
1 1 1 0 1 0 0 No 
1 0 0 0 1 0 0 No 
1 0 1 0 1 1 0 No 
1 0 1 0 1 0 0 No 
1 1 1 0 1 0 0 No 
1 0 0 0 1 0 0 No 
1 0 1 0 1 0 1 Yes 
0 1 0 0 1 1 0 Yes 
0 1 0 0 1 0 0 Yes 
0 1 1 0 1 1 1 Yes 
0 0 1 0 1 1 0 Yes 
0 1 1 0 1 0 1 Yes 
1 1 1 0 0 0 0 Yes 
0 0 1 0 0 1 0 Yes 
1 0 1 0 0 1 1 Yes 
0 0 0 0 0 0 0 Yes 
1 0 0 0 0 0 1 Yes 
0 1 0 0 0 1 0 Yes 
1 0 0 0 0 1 1 Yes 
0 1 0 0 0 1 0 Yes 
1 1 1 0 0 0 0 Yes 
1 1 0 0 0 0 1 Yes 
0 0 1 0 0 0 1 Yes 
Results: 96 / 100
Results: 40 / 100
0 1 0 1 0 1 0 Yes 
1 1 1 1 1 1 1 Yes 
1 1 0 1 1 1 0 No 
0 0 0 1 1 0 0 No 
0 0 1 0 1 0 1 Yes 
1 0 1 1 0 0 1 No 
1 0 1 0 1 0 0 No 
0 1 0 1 1 1 0 Yes 
1 1 0 1 0 0 0 No 
0 1 0 1 0 1 1 Yes 
1 0 0 0 0 0 1 Yes 
1 0 1 0 1 1 0 No 
0 0 1 1 1 1 0 Yes 
1 1 1 0 1 0 0 No 
0 1 0 0 0 0 1 Yes 
0 1 0 0 1 0 1 Yes 
0 0 0 1 0 0 1 No 
0 0 0 1 1 0 1 No 
1 0 0 1 0 1 1 No 
0 0 0 0 1 1 1 Yes 
0 0 1 1 0 1 0 Yes 
0 0 1 0 1 1 0 Yes 
1 0 1 0 0 1 1 Yes 
1 0 1 0 1 0 1 Yes 
0 0 0 0 1 1 0 Yes 
0 0 1 0 0 1 0 Yes 
0 1 0 1 1 0 1 No 
1 0 0 1 0 0 0 No 
1 0 0 1 1 0 0 No 
0 1 1 0 0 1 1 Yes 
1 0 1 0 1 0 1 Yes 
0 0 0 0 0 0 1 Yes 
0 0 1 1 0 1 0 Yes 
0 0 1 1 1 0 1 No 
1 1 0 1 1 0 0 No 
1 1 1 1 0 1 0 No 
1 0 1 0 0 0 0 Yes 
1 0 1 0 1 1 1 Yes 
0 0 0 1 0 0 0 No 
1 0 1 0 0 1 1 Yes 
0 1 1 0 1 1 1 Yes 
1 1 1 1 0 0 1 No 
1 1 1 0 0 0 0 Yes 
0 0 0 1 0 0 1 No 
1 0 0 1 0 0 0 No 
0 1 1 0 0 1 0 Yes 
0 0 1 1 1 1 1 Yes 
1 0 1 1 1 0 1 Yes 
0 1 0 0 1 0 0 Yes 
0 1 0 1 0 1 0 Yes 
1 1 1 1 1 1 1 Yes 
1 1 0 1 1 1 0 No 
0 0 0 1 1 0 0 No 
0 0 1 0 1 0 1 Yes 
1 0 1 1 0 0 1 No 
1 0 1 0 1 0 0 No 
0 1 0 1 1 1 0 Yes 
1 1 0 1 0 0 0 No 
0 1 0 1 0 1 1 Yes 
1 0 0 0 0 0 1 Yes 
1 0 1 0 1 1 0 No 
0 0 1 1 1 1 0 Yes 
1 1 1 0 1 0 0 No 
0 1 0 0 0 0 1 Yes 
0 1 0 0 1 0 1 Yes 
0 0 0 1 0 0 1 No 
0 0 0 1 1 0 1 No 
1 0 0 1 0 1 1 No 
0 0 0 0 1 1 1 Yes 
0 0 1 1 0 1 0 Yes 
0 0 1 0 1 1 0 Yes 
1 0 1 0 0 1 1 Yes 
1 0 1 0 1 0 1 Yes 
0 0 0 0 1 1 0 Yes 
0 0 1 0 0 1 0 Yes 
0 1 0 1 1 0 1 No 
1 0 0 1 0 0 0 No 
1 0 0 1 1 0 0 No 
0 1 1 0 0 1 1 Yes 
1 0 1 0 1 0 1 Yes 
0 0 0 0 0 0 1 Yes 
0 0 1 1 0 1 0 Yes 
0 0 1 1 1 0 1 No 
1 1 0 1 1 0 0 No 
1 1 1 1 0 1 0 No 
1 0 1 0 0 0 0 Yes 
1 0 1 0 1 1 1 Yes 
0 0 0 1 0 0 0 No 
1 0 1 0 0 1 1 Yes 
0 1 1 0 1 1 1 Yes 
1 1 1 1 0 0 1 No 
1 1 1 0 0 0 0 Yes 
0 0 0 1 0 0 1 No 
1 0 0 1 0 0 0 No 
0 1 1 0 0 1 0 Yes 
0 0 1 1 1 1 1 Yes 
1 0 1 1 1 0 1 Yes 
0 1 0 0 1 0 0 Yes 
0 1 0 1 0 1 0 Yes 
1 1 1 1 1 1 1 Yes 
1 1 0 1 1 1 0 No 
0 0 0 1 1 0 0 No 
1 0 1 1 0 0 1 No 
0 1 0 1 1 1 0 Yes 
1 1 0 1 0 0 0 No 
0 1 0 1 0 1 1 Yes 
0 0 1 1 1 1 0 Yes 
0 0 0 1 0 0 1 No 
0 0 0 1 1 0 1 No 
1 0 0 1 0 1 1 No 
0 0 1 1 0 1 0 Yes 
0 1 0 1 1 0 1 No 
1 0 0 1 0 0 0 No 
1 0 0 1 1 0 0 No 
0 0 1 1 0 1 0 Yes 
0 0 1 1 1 0 1 No 
1 1 0 1 1 0 0 No 
1 1 1 1 0 1 0 No 
0 0 0 1 0 0 0 No 
1 1 1 1 0 0 1 No 
0 0 0 1 0 0 1 No 
1 0 0 1 0 0 0 No 
0 0 1 1 1 1 1 Yes 
1 0 1 1 1 0 1 Yes 
0 1 0 1 0 1 0 Yes 
1 1 1 1 1 1 1 Yes 
1 1 0 1 1 1 0 No 
0 1 0 1 1 1 0 Yes 
0 1 0 1 0 1 1 Yes 
0 0 1 1 1 1 0 Yes 
1 0 0 1 0 1 1 No 
0 0 1 1 0 1 0 Yes 
0 0 1 1 0 1 0 Yes 
1 1 1 1 0 1 0 No 
0 0 1 1 1 1 1 Yes 
1 1 1 1 1 1 1 Yes 
1 1 0 1 1 1 0 No 
1 0 0 1 0 1 1 No 
1 1 1 1 0 1 0 No 
1 1 0 1 1 1 0 No 
1 0 0 1 0 1 1 No 
1 1 1 1 1 1 1 Yes 
1 1 1 1 0 1 0 No 
1 1 1 1 1 1 1 Yes 
1 1 1 1 0 1 0 No 
0 1 0 1 0 1 0 Yes 
0 1 0 1 1 1 0 Yes 
0 1 0 1 0 1 1 Yes 
0 0 1 1 1 1 0 Yes 
0 0 1 1 0 1 0 Yes 
0 0 1 1 0 1 0 Yes 
0 0 1 1 1 1 1 Yes 
0 0 0 1 1 0 0 No 
1 0 1 1 0 0 1 No 
1 1 0 1 0 0 0 No 
0 0 0 1 0 0 1 No 
0 0 0 1 1 0 1 No 
0 1 0 1 1 0 1 No 
1 0 0 1 0 0 0 No 
1 0 0 1 1 0 0 No 
0 0 1 1 1 0 1 No 
1 1 0 1 1 0 0 No 
0 0 0 1 0 0 0 No 
1 1 1 1 0 0 1 No 
0 0 0 1 0 0 1 No 
1 0 0 1 0 0 0 No 
1 0 1 1 1 0 1 Yes 
0 0 0 1 1 0 0 No 
1 1 0 1 0 0 0 No 
0 0 0 1 0 0 1 No 
0 0 0 1 1 0 1 No 
0 1 0 1 1 0 1 No 
1 0 0 1 0 0 0 No 
1 0 0 1 1 0 0 No 
1 1 0 1 1 0 0 No 
0 0 0 1 0 0 0 No 
0 0 0 1 0 0 1 No 
1 0 0 1 0 0 0 No 
1 0 1 1 0 0 1 No 
0 0 1 1 1 0 1 No 
1 1 1 1 0 0 1 No 
1 0 1 1 1 0 1 Yes 
0 0 1 1 1 0 1 No 
1 0 1 1 1 0 1 Yes 
1 0 1 1 1 0 1 Yes 
0 0 1 1 1 0 1 No 
1 0 1 1 0 0 1 No 
1 1 1 1 0 0 1 No 
0 0 1 0 1 0 1 Yes 
1 0 1 0 1 0 0 No 
1 0 0 0 0 0 1 Yes 
1 0 1 0 1 1 0 No 
1 1 1 0 1 0 0 No 
0 1 0 0 0 0 1 Yes 
0 1 0 0 1 0 1 Yes 
0 0 0 0 1 1 1 Yes 
0 0 1 0 1 1 0 Yes 
1 0 1 0 0 1 1 Yes 
1 0 1 0 1 0 1 Yes 
0 0 0 0 1 1 0 Yes 
0 0 1 0 0 1 0 Yes 
0 1 1 0 0 1 1 Yes 
1 0 1 0 1 0 1 Yes 
0 0 0 0 0 0 1 Yes 
1 0 1 0 0 0 0 Yes 
1 0 1 0 1 1 1 Yes 
1 0 1 0 0 1 1 Yes 
0 1 1 0 1 1 1 Yes 
1 1 1 0 0 0 0 Yes 
0 1 1 0 0 1 0 Yes 
0 1 0 0 1 0 0 Yes 
1 0 1 0 1 0 0 No 
1 0 1 0 1 1 0 No 
1 1 1 0 1 0 0 No 
0 0 1 0 1 1 0 Yes 
0 0 0 0 1 1 0 Yes 
0 0 1 0 0 1 0 Yes 
1 0 1 0 0 0 0 Yes 
1 1 1 0 0 0 0 Yes 
0 1 1 0 0 1 0 Yes 
0 1 0 0 1 0 0 Yes 
1 0 1 0 1 0 0 No 
1 0 1 0 1 1 0 No 
1 1 1 0 1 0 0 No 
1 0 1 0 0 0 0 Yes 
1 1 1 0 0 0 0 Yes 
1 0 1 0 1 0 0 No 
1 0 1 0 1 1 0 No 
1 1 1 0 1 0 0 No 
1 0 1 0 0 0 0 Yes 
1 1 1 0 0 0 0 Yes 
0 0 1 0 1 1 0 Yes 
0 0 0 0 1 1 0 Yes 
0 0 1 0 0 1 0 Yes 
0 1 1 0 0 1 0 Yes 
0 1 0 0 1 0 0 Yes 
0 0 1 0 1 0 1 Yes 
1 0 0 0 0 0 1 Yes 
0 1 0 0 0 0 1 Yes 
0 1 0 0 1 0 1 Yes 
0 0 0 0 1 1 1 Yes 
1 0 1 0 0 1 1 Yes 
1 0 1 0 1 0 1 Yes 
0 1 1 0 0 1 1 Yes 
1 0 1 0 1 0 1 Yes 
0 0 0 0 0 0 1 Yes 
1 0 1 0 1 1 1 Yes 
1 0 1 0 0 1 1 Yes 
0 1 1 0 1 1 1 Yes 
Results: 96 / 100
Results: 40 / 100
Results: 40 / 100
0 0 0 1 0 0 0 No 
0 0 0 1 0 0 0 No 
Results: 40 / 100


Test case 5
1 1 0 1 1 1 1 Yes 
0 0 0 1 1 0 1 No 
1 1 0 1 1 1 1 Yes 
0 0 0 1 1 0 1 No 
1 1 0 1 1 1 1 Yes 
0 0 0 1 1 0 1 No 
Results: 35 / 100
1 0 0 1 0 0 0 No 
0 1 1 1 0 1 0 Yes 
1 1 1 1 0 1 0 No 
1 0 0 0 0 0 1 Yes 
0 0 1 1 1 1 0 Yes 
1 0 0 1 0 0 0 No 
0 1 1 1 0 1 0 Yes 
1 1 1 1 0 1 0 No 
1 0 0 0 0 0 1 Yes 
0 0 1 1 1 1 0 Yes 
1 0 0 1 0 0 0 No 
1 1 1 1 0 1 0 No 
1 0 0 0 0 0 1 Yes 
1 0 0 1 0 0 0 No 
1 1 1 1 0 1 0 No 
1 0 0 0 0 0 1 Yes 
0 1 1 1 0 1 0 Yes 
0 0 1 1 1 1 0 Yes 
Results: 77 / 100
0 0 1 1 1 0 0 No 
1 1 0 1 0 0 0 No 
1 0 1 1 1 0 0 No 
0 0 0 0 1 0 0 Yes 
0 0 1 1 1 1 0 Yes 
1 0 0 0 1 0 0 No 
0 0 0 0 1 0 0 Yes 
0 1 0 0 1 0 0 Yes 
0 0 1 1 0 0 0 No 
0 1 1 0 1 0 1 Yes 
0 0 1 1 1 0 0 No 
1 1 0 1 0 0 0 No 
1 0 1 1 1 0 0 No 
0 0 0 0 1 0 0 Yes 
0 0 1 1 1 1 0 Yes 
1 0 0 0 1 0 0 No 
0 0 0 0 1 0 0 Yes 
0 1 0 0 1 0 0 Yes 
0 0 1 1 0 0 0 No 
0 1 1 0 1 0 1 Yes 
1 1 0 1 0 0 0 No 
1 0 1 1 1 0 0 No 
1 0 0 0 1 0 0 No 
0 0 1 1 1 0 0 No 
0 0 0 0 1 0 0 Yes 
0 0 1 1 1 1 0 Yes 
0 0 0 0 1 0 0 Yes 
0 1 0 0 1 0 0 Yes 
0 0 1 1 0 0 0 No 
0 1 1 0 1 0 1 Yes 
0 0 1 1 1 0 0 No 
0 0 1 1 1 1 0 Yes 
0 0 1 1 0 0 0 No 
0 0 1 1 1 1 0 Yes 
0 0 1 1 1 0 0 No 
0 0 1 1 0 0 0 No 
0 0 0 0 1 0 0 Yes 
0 0 0 0 1 0 0 Yes 
0 1 0 0 1 0 0 Yes 
0 1 1 0 1 0 1 Yes 
Results: 79 / 100
0 0 0 1 1 0 1 No 
0 1 0 0 0 0 1 Yes 
0 0 1 1 0 0 0 No 
0 1 0 0 1 1 1 Yes 
0 0 1 0 1 0 1 Yes 
0 0 1 1 0 1 0 Yes 
1 0 0 0 0 0 1 Yes 
0 1 0 0 1 0 0 Yes 
1 0 1 1 0 0 1 No 
1 1 1 1 0 1 0 No 
0 0 0 1 0 0 1 No 
1 0 1 0 1 0 1 Yes 
0 0 1 1 1 1 0 Yes 
1 1 0 0 0 0 1 Yes 
1 1 0 0 0 1 1 Yes 
0 0 1 1 1 1 0 Yes 
1 0 0 1 0 0 0 No 
1 0 1 1 0 0 1 No 
0 0 0 1 1 0 0 No 
0 0 0 1 0 0 0 No 
0 0 0 1 1 0 1 No 
0 1 0 0 0 0 1 Yes 
0 0 1 1 0 0 0 No 
0 1 0 0 1 1 1 Yes 
0 0 1 0 1 0 1 Yes 
0 0 1 1 0 1 0 Yes 
1 0 0 0 0 0 1 Yes 
0 1 0 0 1 0 0 Yes 
1 0 1 1 0 0 1 No 
1 1 1 1 0 1 0 No 
0 0 0 1 0 0 1 No 
1 0 1 0 1 0 1 Yes 
0 0 1 1 1 1 0 Yes 
1 1 0 0 0 0 1 Yes 
1 1 0 0 0 1 1 Yes 
0 0 1 1 1 1 0 Yes 
1 0 0 1 0 0 0 No 
1 0 1 1 0 0 1 No 
0 0 0 1 1 0 0 No 
0 0 0 1 0 0 0 No 
0 0 0 1 1 0 1 No 
0 0 1 1 0 0 0 No 
0 0 1 1 0 1 0 Yes 
1 0 1 1 0 0 1 No 
1 1 1 1 0 1 0 No 
0 0 0 1 0 0 1 No 
0 0 1 1 1 1 0 Yes 
0 0 1 1 1 1 0 Yes 
1 0 0 1 0 0 0 No 
1 0 1 1 0 0 1 No 
0 0 0 1 1 0 0 No 
0 0 0 1 0 0 0 No 
0 0 1 1 0 1 0 Yes 
1 1 1 1 0 1 0 No 
0 0 1 1 1 1 0 Yes 
0 0 1 1 1 1 0 Yes 
1 1 1 1 0 1 0 No 
0 0 1 1 0 1 0 Yes 
0 0 1 1 1 1 0 Yes 
0 0 1 1 1 1 0 Yes 
0 0 0 1 1 0 1 No 
0 0 1 1 0 0 0 No 
1 0 1 1 0 0 1 No 
0 0 0 1 0 0 1 No 
1 0 0 1 0 0 0 No 
1 0 1 1 0 0 1 No 
0 0 0 1 1 0 0 No 
0 0 0 1 0 0 0 No 
0 1 0 0 0 0 1 Yes 
0 1 0 0 1 1 1 Yes 
0 0 1 0 1 0 1 Yes 
1 0 0 0 0 0 1 Yes 
0 1 0 0 1 0 0 Yes 
1 0 1 0 1 0 1 Yes 
1 1 0 0 0 0 1 Yes 
1 1 0 0 0 1 1 Yes 
Results: 91 / 100
1 0 1 1 0 0 1 No 
1 1 0 1 0 0 0 No 
0 1 0 1 1 1 0 Yes 
0 1 1 1 1 0 0 No 
0 1 1 0 0 0 1 Yes 
1 1 1 0 1 0 0 No 
1 0 1 0 1 0 0 No 
1 1 1 0 0 0 0 Yes 
0 0 1 0 1 0 1 Yes 
0 0 0 0 1 1 0 Yes 
0 1 0 0 1 1 0 Yes 
0 1 0 1 0 1 0 Yes 
1 1 0 0 0 0 1 Yes 
1 1 0 1 1 1 1 Yes 
0 1 1 1 0 0 1 No 
1 1 0 1 1 1 0 No 
0 0 1 1 1 0 0 No 
0 0 0 0 1 1 1 Yes 
0 0 1 1 1 1 0 Yes 
0 0 0 1 1 0 0 No 
0 1 1 0 1 0 1 Yes 
1 1 0 1 1 0 0 No 
1 0 1 0 1 1 1 Yes 
0 1 1 0 0 1 1 Yes 
0 0 1 1 0 1 0 Yes 
0 0 1 0 0 1 0 Yes 
1 1 0 0 0 0 1 Yes 
0 1 0 0 0 1 0 Yes 
1 1 1 1 0 1 0 No 
0 0 1 1 0 0 0 No 
0 0 1 0 1 1 1 Yes 
1 0 1 1 1 0 1 Yes 
0 0 1 0 1 1 0 Yes 
0 1 0 0 1 1 0 Yes 
1 1 0 0 0 1 1 Yes 
1 0 0 0 0 1 1 Yes 
1 0 0 1 0 0 0 No 
1 0 0 1 0 1 1 No 
1 0 0 0 0 0 1 Yes 
0 0 0 1 0 0 0 No 
0 0 1 1 1 0 1 No 
0 0 0 1 0 0 1 No 
1 0 1 1 1 0 1 Yes 
0 0 1 1 1 1 0 Yes 
0 1 1 0 0 0 0 Yes 
1 0 1 0 0 1 1 Yes 
0 1 0 0 0 0 1 Yes 
1 0 1 0 1 0 1 Yes 
1 0 1 1 1 1 1 Yes 
0 0 1 1 0 1 0 Yes 
1 0 1 1 0 0 1 No 
1 1 0 1 0 0 0 No 
0 1 0 1 1 1 0 Yes 
0 1 1 1 1 0 0 No 
0 1 1 0 0 0 1 Yes 
1 1 1 0 1 0 0 No 
1 0 1 0 1 0 0 No 
1 1 1 0 0 0 0 Yes 
0 0 1 0 1 0 1 Yes 
0 0 0 0 1 1 0 Yes 
0 1 0 0 1 1 0 Yes 
0 1 0 1 0 1 0 Yes 
1 1 0 0 0 0 1 Yes 
1 1 0 1 1 1 1 Yes 
0 1 1 1 0 0 1 No 
1 1 0 1 1 1 0 No 
0 0 1 1 1 0 0 No 
0 0 0 0 1 1 1 Yes 
0 0 1 1 1 1 0 Yes 
0 0 0 1 1 0 0 No 
0 1 1 0 1 0 1 Yes 
1 1 0 1 1 0 0 No 
1 0 1 0 1 1 1 Yes 
0 1 1 0 0 1 1 Yes 
0 0 1 1 0 1 0 Yes 
0 0 1 0 0 1 0 Yes 
1 1 0 0 0 0 1 Yes 
0 1 0 0 0 1 0 Yes 
1 1 1 1 0 1 0 No 
0 0 1 1 0 0 0 No 
0 0 1 0 1 1 1 Yes 
1 0 1 1 1 0 1 Yes 
0 0 1 0 1 1 0 Yes 
0 1 0 0 1 1 0 Yes 
1 1 0 0 0 1 1 Yes 
1 0 0 0 0 1 1 Yes 
1 0 0 1 0 0 0 No 
1 0 0 1 0 1 1 No 
1 0 0 0 0 0 1 Yes 
0 0 0 1 0 0 0 No 
0 0 1 1 1 0 1 No 
0 0 0 1 0 0 1 No 
1 0 1 1 1 0 1 Yes 
0 0 1 1 1 1 0 Yes 
0 1 1 0 0 0 0 Yes 
1 0 1 0 0 1 1 Yes 
0 1 0 0 0 0 1 Yes 
1 0 1 0 1 0 1 Yes 
1 0 1 1 1 1 1 Yes 
0 0 1 1 0 1 0 Yes 
1 0 1 1 0 0 1 No 
1 1 0 1 0 0 0 No 
0 1 0 1 1 1 0 Yes 
0 1 1 1 1 0 0 No 
0 1 0 1 0 1 0 Yes 
1 1 0 1 1 1 1 Yes 
0 1 1 1 0 0 1 No 
1 1 0 1 1 1 0 No 
0 0 1 1 1 0 0 No 
0 0 1 1 1 1 0 Yes 
0 0 0 1 1 0 0 No 
1 1 0 1 1 0 0 No 
0 0 1 1 0 1 0 Yes 
1 1 1 1 0 1 0 No 
0 0 1 1 0 0 0 No 
1 0 1 1 1 0 1 Yes 
1 0 0 1 0 0 0 No 
1 0 0 1 0 1 1 No 
0 0 0 1 0 0 0 No 
0 0 1 1 1 0 1 No 
0 0 0 1 0 0 1 No 
1 0 1 1 1 0 1 Yes 
0 0 1 1 1 1 0 Yes 
1 0 1 1 1 1 1 Yes 
0 0 1 1 0 1 0 Yes 
0 1 0 1 1 1 0 Yes 
0 1 0 1 0 1 0 Yes 
1 1 0 1 1 1 1 Yes 
1 1 0 1 1 1 0 No 
0 0 1 1 1 1 0 Yes 
0 0 1 1 0 1 0 Yes 
1 1 1 1 0 1 0 No 
1 0 0 1 0 1 1 No 
0 0 1 1 1 1 0 Yes 
1 0 1 1 1 1 1 Yes 
0 0 1 1 0 1 0 Yes 
1 1 0 1 1 1 1 Yes 
1 1 0 1 1 1 0 No 
1 1 1 1 0 1 0 No 
1 0 0 1 0 1 1 No 
1 0 1 1 1 1 1 Yes 
1 1 0 1 1 1 1 Yes 
1 1 0 1 1 1 0 No 
1 0 1 1 1 1 1 Yes 
1 1 0 1 1 1 0 No 
1 1 0 1 1 1 1 Yes 
1 0 1 1 1 1 1 Yes 
1 1 1 1 0 1 0 No 
1 0 0 1 0 1 1 No 
0 1 0 1 1 1 0 Yes 
0 1 0 1 0 1 0 Yes 
0 0 1 1 1 1 0 Yes 
0 0 1 1 0 1 0 Yes 
0 0 1 1 1 1 0 Yes 
0 0 1 1 0 1 0 Yes 
1 0 1 1 0 0 1 No 
1 1 0 1 0 0 0 No 
0 1 1 1 1 0 0 No 
0 1 1 1 0 0 1 No 
0 0 1 1 1 0 0 No 
0 0 0 1 1 0 0 No 
1 1 0 1 1 0 0 No 
0 0 1 1 0 0 0 No 
1 0 1 1 1 0 1 Yes 
1 0 0 1 0 0 0 No 
0 0 0 1 0 0 0 No 
0 0 1 1 1 0 1 No 
0 0 0 1 0 0 1 No 
1 0 1 1 1 0 1 Yes 
1 0 1 1 0 0 1 No 
1 1 0 1 0 0 0 No 
1 1 0 1 1 0 0 No 
1 0 1 1 1 0 1 Yes 
1 0 0 1 0 0 0 No 
1 0 1 1 1 0 1 Yes 
1 1 0 1 0 0 0 No 
1 1 0 1 1 0 0 No 
1 0 0 1 0 0 0 No 
1 0 1 1 0 0 1 No 
1 0 1 1 1 0 1 Yes 
1 0 1 1 1 0 1 Yes 
1 0 1 1 1 0 1 Yes 
1 0 1 1 1 0 1 Yes 
1 0 1 1 0 0 1 No 
0 1 1 1 1 0 0 No 
0 1 1 1 0 0 1 No 
0 0 1 1 1 0 0 No 
0 0 0 1 1 0 0 No 
0 0 1 1 0 0 0 No 
0 0 0 1 0 0 0 No 
0 0 1 1 1 0 1 No 
0 0 0 1 0 0 1 No 
0 1 1 0 0 0 1 Yes 
1 1 1 0 1 0 0 No 
1 0 1 0 1 0 0 No 
1 1 1 0 0 0 0 Yes 
0 0 1 0 1 0 1 Yes 
0 0 0 0 1 1 0 Yes 
0 1 0 0 1 1 0 Yes 
1 1 0 0 0 0 1 Yes 
0 0 0 0 1 1 1 Yes 
0 1 1 0 1 0 1 Yes 
1 0 1 0 1 1 1 Yes 
0 1 1 0 0 1 1 Yes 
0 0 1 0 0 1 0 Yes 
1 1 0 0 0 0 1 Yes 
0 1 0 0 0 1 0 Yes 
0 0 1 0 1 1 1 Yes 
0 0 1 0 1 1 0 Yes 
0 1 0 0 1 1 0 Yes 
1 1 0 0 0 1 1 Yes 
1 0 0 0 0 1 1 Yes 
1 0 0 0 0 0 1 Yes 
0 1 1 0 0 0 0 Yes 
1 0 1 0 0 1 1 Yes 
0 1 0 0 0 0 1 Yes 
1 0 1 0 1 0 1 Yes 
1 1 1 0 1 0 0 No 
1 0 1 0 1 0 0 No 
1 1 1 0 0 0 0 Yes 
0 0 0 0 1 1 0 Yes 
0 1 0 0 1 1 0 Yes 
0 0 1 0 0 1 0 Yes 
0 1 0 0 0 1 0 Yes 
0 0 1 0 1 1 0 Yes 
0 1 0 0 1 1 0 Yes 
0 1 1 0 0 0 0 Yes 
1 1 1 0 1 0 0 No 
1 0 1 0 1 0 0 No 
1 1 1 0 0 0 0 Yes 
1 1 1 0 1 0 0 No 
1 0 1 0 1 0 0 No 
1 1 1 0 0 0 0 Yes 
0 0 0 0 1 1 0 Yes 
0 1 0 0 1 1 0 Yes 
0 0 1 0 0 1 0 Yes 
0 1 0 0 0 1 0 Yes 
0 0 1 0 1 1 0 Yes 
0 1 0 0 1 1 0 Yes 
0 1 1 0 0 0 0 Yes 
0 1 1 0 0 0 1 Yes 
0 0 1 0 1 0 1 Yes 
1 1 0 0 0 0 1 Yes 
0 0 0 0 1 1 1 Yes 
0 1 1 0 1 0 1 Yes 
1 0 1 0 1 1 1 Yes 
0 1 1 0 0 1 1 Yes 
1 1 0 0 0 0 1 Yes 
0 0 1 0 1 1 1 Yes 
1 1 0 0 0 1 1 Yes 
1 0 0 0 0 1 1 Yes 
1 0 0 0 0 0 1 Yes 
1 0 1 0 0 1 1 Yes 
0 1 0 0 0 0 1 Yes 
1 0 1 0 1 0 1 Yes 
Results: 98 / 100
Results: 40 / 100
0 1 1 0 0 0 0 Yes 
1 0 0 1 0 1 0 No 
1 1 1 1 0 1 0 No 
1 1 0 0 0 0 1 Yes 
0 0 1 1 0 0 0 No 
0 1 0 0 0 1 0 Yes 
0 1 1 0 0 0 1 Yes 
0 0 1 0 0 1 0 Yes 
0 1 1 0 1 0 1 Yes 
1 0 0 1 0 1 1 No 
1 0 1 0 0 1 1 Yes 
0 1 1 1 0 1 0 Yes 
0 1 0 0 0 1 0 Yes 
1 1 1 1 0 0 1 No 
1 1 0 1 1 1 0 No 
0 0 0 1 1 0 1 No 
0 1 0 0 1 0 1 Yes 
0 0 0 1 0 0 1 No 
0 0 1 1 1 1 1 Yes 
1 1 0 0 0 1 1 Yes 
0 1 0 0 1 0 0 Yes 
1 0 1 0 0 0 0 Yes 
0 0 0 1 0 0 0 No 
0 0 0 0 1 0 0 Yes 
1 0 1 1 0 0 1 No 
1 1 0 1 1 0 0 No 
1 0 0 1 1 0 0 No 
0 0 1 1 0 0 0 No 
1 0 1 0 1 1 1 Yes 
0 1 0 1 1 0 1 No 
0 0 1 1 0 1 0 Yes 
0 1 0 0 1 1 0 Yes 
1 1 1 1 1 1 1 Yes 
1 0 1 0 1 0 1 Yes 
0 1 0 0 1 1 0 Yes 
0 0 1 0 0 0 0 Yes 
0 0 0 1 1 0 1 No 
1 0 1 1 1 0 1 Yes 
0 0 1 0 1 1 1 Yes 
1 0 1 1 1 0 1 Yes 
0 0 0 0 1 1 1 Yes 
1 1 0 1 0 1 1 No 
1 0 0 1 1 1 0 No 
0 0 1 1 0 1 0 Yes 
0 0 1 1 1 1 0 Yes 
1 1 0 0 0 1 1 Yes 
0 0 0 1 1 1 0 Yes 
0 0 0 1 0 0 1 No 
1 0 1 0 1 0 1 Yes 
0 1 1 0 0 0 0 Yes 
1 0 0 1 0 1 0 No 
1 1 1 1 0 1 0 No 
1 1 0 0 0 0 1 Yes 
0 0 1 1 0 0 0 No 
0 1 0 0 0 1 0 Yes 
0 1 1 0 0 0 1 Yes 
0 0 1 0 0 1 0 Yes 
0 1 1 0 1 0 1 Yes 
1 0 0 1 0 1 1 No 
1 0 1 0 0 1 1 Yes 
0 1 1 1 0 1 0 Yes 
0 1 0 0 0 1 0 Yes 
1 1 1 1 0 0 1 No 
1 1 0 1 1 1 0 No 
0 0 0 1 1 0 1 No 
0 1 0 0 1 0 1 Yes 
0 0 0 1 0 0 1 No 
0 0 1 1 1 1 1 Yes 
1 1 0 0 0 1 1 Yes 
0 1 0 0 1 0 0 Yes 
1 0 1 0 0 0 0 Yes 
0 0 0 1 0 0 0 No 
0 0 0 0 1 0 0 Yes 
1 0 1 1 0 0 1 No 
1 1 0 1 1 0 0 No 
1 0 0 1 1 0 0 No 
0 0 1 1 0 0 0 No 
1 0 1 0 1 1 1 Yes 
0 1 0 1 1 0 1 No 
0 0 1 1 0 1 0 Yes 
0 1 0 0 1 1 0 Yes 
1 1 1 1 1 1 1 Yes 
1 0 1 0 1 0 1 Yes 
0 1 0 0 1 1 0 Yes 
0 0 1 0 0 0 0 Yes 
0 0 0 1 1 0 1 No 
1 0 1 1 1 0 1 Yes 
0 0 1 0 1 1 1 Yes 
1 0 1 1 1 0 1 Yes 
0 0 0 0 1 1 1 Yes 
1 1 0 1 0 1 1 No 
1 0 0 1 1 1 0 No 
0 0 1 1 0 1 0 Yes 
0 0 1 1 1 1 0 Yes 
1 1 0 0 0 1 1 Yes 
0 0 0 1 1 1 0 Yes 
0 0 0 1 0 0 1 No 
1 0 1 0 1 0 1 Yes 
1 0 0 1 0 1 0 No 
1 1 1 1 0 1 0 No 
0 0 1 1 0 0 0 No 
1 0 0 1 0 1 1 No 
0 1 1 1 0 1 0 Yes 
1 1 1 1 0 0 1 No 
1 1 0 1 1 1 0 No 
0 0 0 1 1 0 1 No 
0 0 0 1 0 0 1 No 
0 0 1 1 1 1 1 Yes 
0 0 0 1 0 0 0 No 
1 0 1 1 0 0 1 No 
1 1 0 1 1 0 0 No 
1 0 0 1 1 0 0 No 
0 0 1 1 0 0 0 No 
0 1 0 1 1 0 1 No 
0 0 1 1 0 1 0 Yes 
1 1 1 1 1 1 1 Yes 
0 0 0 1 1 0 1 No 
1 0 1 1 1 0 1 Yes 
1 0 1 1 1 0 1 Yes 
1 1 0 1 0 1 1 No 
1 0 0 1 1 1 0 No 
0 0 1 1 0 1 0 Yes 
0 0 1 1 1 1 0 Yes 
0 0 0 1 1 1 0 Yes 
0 0 0 1 0 0 1 No 
1 0 0 1 0 1 0 No 
1 0 0 1 0 1 1 No 
1 1 0 1 1 1 0 No 
0 0 0 1 1 0 1 No 
0 0 0 1 0 0 1 No 
0 0 0 1 0 0 0 No 
1 1 0 1 1 0 0 No 
1 0 0 1 1 0 0 No 
0 1 0 1 1 0 1 No 
0 0 0 1 1 0 1 No 
1 1 0 1 0 1 1 No 
1 0 0 1 1 1 0 No 
0 0 0 1 1 1 0 Yes 
0 0 0 1 0 0 1 No 
1 0 0 1 0 1 0 No 
1 0 0 1 0 1 1 No 
1 1 0 1 1 1 0 No 
1 1 0 1 0 1 1 No 
1 0 0 1 1 1 0 No 
0 0 0 1 1 1 0 Yes 
1 0 0 1 0 1 0 No 
1 0 0 1 0 1 1 No 
1 1 0 1 1 1 0 No 
1 1 0 1 0 1 1 No 
1 0 0 1 1 1 0 No 
0 0 0 1 1 1 0 Yes 
0 0 0 1 1 0 1 No 
0 0 0 1 0 0 1 No 
0 0 0 1 0 0 0 No 
1 1 0 1 1 0 0 No 
1 0 0 1 1 0 0 No 
0 1 0 1 1 0 1 No 
0 0 0 1 1 0 1 No 
0 0 0 1 0 0 1 No 
1 1 1 1 0 1 0 No 
0 0 1 1 0 0 0 No 
0 1 1 1 0 1 0 Yes 
1 1 1 1 0 0 1 No 
0 0 1 1 1 1 1 Yes 
1 0 1 1 0 0 1 No 
0 0 1 1 0 0 0 No 
0 0 1 1 0 1 0 Yes 
1 1 1 1 1 1 1 Yes 
1 0 1 1 1 0 1 Yes 
1 0 1 1 1 0 1 Yes 
0 0 1 1 0 1 0 Yes 
0 0 1 1 1 1 0 Yes 
0 0 1 1 1 1 1 Yes 
1 1 1 1 1 1 1 Yes 
1 0 1 1 1 0 1 Yes 
1 0 1 1 1 0 1 Yes 
0 0 1 1 1 1 0 Yes 
1 1 1 1 0 1 0 No 
0 0 1 1 0 0 0 No 
0 1 1 1 0 1 0 Yes 
1 1 1 1 0 0 1 No 
1 0 1 1 0 0 1 No 
0 0 1 1 0 0 0 No 
0 0 1 1 0 1 0 Yes 
0 0 1 1 0 1 0 Yes 
1 1 1 1 0 1 0 No 
0 1 1 1 0 1 0 Yes 
0 0 1 1 0 1 0 Yes 
0 0 1 1 0 1 0 Yes 
1 1 1 1 0 1 0 No 
0 1 1 1 0 1 0 Yes 
0 0 1 1 0 1 0 Yes 
0 0 1 1 0 1 0 Yes 
0 0 1 1 0 0 0 No 
1 1 1 1 0 0 1 No 
1 0 1 1 0 0 1 No 
0 0 1 1 0 0 0 No 
0 1 1 0 0 0 0 Yes 
1 1 0 0 0 0 1 Yes 
0 1 0 0 0 1 0 Yes 
0 1 1 0 0 0 1 Yes 
0 0 1 0 0 1 0 Yes 
0 1 1 0 1 0 1 Yes 
1 0 1 0 0 1 1 Yes 
0 1 0 0 0 1 0 Yes 
0 1 0 0 1 0 1 Yes 
1 1 0 0 0 1 1 Yes 
0 1 0 0 1 0 0 Yes 
1 0 1 0 0 0 0 Yes 
0 0 0 0 1 0 0 Yes 
1 0 1 0 1 1 1 Yes 
0 1 0 0 1 1 0 Yes 
1 0 1 0 1 0 1 Yes 
0 1 0 0 1 1 0 Yes 
0 0 1 0 0 0 0 Yes 
0 0 1 0 1 1 1 Yes 
0 0 0 0 1 1 1 Yes 
1 1 0 0 0 1 1 Yes 
1 0 1 0 1 0 1 Yes 
Results: 89 / 100
Results: 40 / 100
Results: 40 / 100
0 0 0 0 0 0 1 Yes 
0 0 0 0 0 0 1 Yes 
Results: 60 / 100


Test case 10
0 1 1 1 0 1 0 Yes 
0 1 1 0 0 0 1 Yes 
0 1 1 1 0 1 0 Yes 
0 1 1 0 0 0 1 Yes 
Results: 60 / 100
0 1 0 0 1 1 1 Yes 
0 1 0 1 0 1 1 Yes 
1 0 1 0 1 0 1 Yes 
0 0 0 0 0 0 1 Yes 
0 1 0 0 1 1 0 Yes 
0 1 0 0 1 1 1 Yes 
0 1 0 1 0 1 1 Yes 
1 0 1 0 1 0 1 Yes 
0 0 0 0 0 0 1 Yes 
0 1 0 0 1 1 0 Yes 
Results: 60 / 100
0 1 1 0 0 0 1 Yes 
0 1 1 0 0 1 0 Yes 
0 1 0 1 0 1 0 Yes 
1 0 1 0 1 0 1 Yes 
1 0 1 0 1 0 1 Yes 
1 0 1 1 0 0 1 No 
0 0 1 0 1 0 1 Yes 
0 1 0 0 1 0 0 Yes 
0 1 1 0 0 1 1 Yes 
1 1 0 1 0 0 0 No 
0 1 1 0 0 0 1 Yes 
0 1 1 0 0 1 0 Yes 
0 1 0 1 0 1 0 Yes 
1 0 1 0 1 0 1 Yes 
1 0 1 0 1 0 1 Yes 
1 0 1 1 0 0 1 No 
0 0 1 0 1 0 1 Yes 
0 1 0 0 1 0 0 Yes 
0 1 1 0 0 1 1 Yes 
1 1 0 1 0 0 0 No 
0 1 0 1 0 1 0 Yes 
1 0 1 1 0 0 1 No 
1 1 0 1 0 0 0 No 
1 0 1 1 0 0 1 No 
1 1 0 1 0 0 0 No 
0 1 0 1 0 1 0 Yes 
0 1 1 0 0 0 1 Yes 
0 1 1 0 0 1 0 Yes 
1 0 1 0 1 0 1 Yes 
1 0 1 0 1 0 1 Yes 
0 0 1 0 1 0 1 Yes 
0 1 0 0 1 0 0 Yes 
0 1 1 0 0 1 1 Yes 
Results: 77 / 100
0 0 1 0 1 1 0 Yes 
1 1 0 1 1 1 0 No 
0 1 0 0 1 0 0 Yes 
1 0 1 0 1 0 1 Yes 
0 0 0 0 1 0 0 Yes 
1 1 0 1 1 0 0 No 
1 1 1 1 1 1 1 Yes 
0 0 0 1 1 0 0 No 
1 1 1 1 0 0 0 No 
1 0 0 1 0 1 0 No 
1 0 0 1 1 1 0 No 
0 1 0 0 0 1 0 Yes 
1 0 0 0 0 1 1 Yes 
1 1 1 1 1 1 0 No 
0 0 0 1 0 0 1 No 
1 1 0 1 1 1 0 No 
0 0 0 0 0 0 1 Yes 
0 0 1 1 0 1 0 Yes 
1 0 0 0 0 0 1 Yes 
1 0 1 0 1 0 1 Yes 
0 0 1 0 1 1 0 Yes 
1 1 0 1 1 1 0 No 
0 1 0 0 1 0 0 Yes 
1 0 1 0 1 0 1 Yes 
0 0 0 0 1 0 0 Yes 
1 1 0 1 1 0 0 No 
1 1 1 1 1 1 1 Yes 
0 0 0 1 1 0 0 No 
1 1 1 1 0 0 0 No 
1 0 0 1 0 1 0 No 
1 0 0 1 1 1 0 No 
0 1 0 0 0 1 0 Yes 
1 0 0 0 0 1 1 Yes 
1 1 1 1 1 1 0 No 
0 0 0 1 0 0 1 No 
1 1 0 1 1 1 0 No 
0 0 0 0 0 0 1 Yes 
0 0 1 1 0 1 0 Yes 
1 0 0 0 0 0 1 Yes 
1 0 1 0 1 0 1 Yes 
1 1 0 1 1 1 0 No 
1 1 0 1 1 0 0 No 
1 1 1 1 1 1 1 Yes 
0 0 0 1 1 0 0 No 
1 1 1 1 0 0 0 No 
1 0 0 1 0 1 0 No 
1 0 0 1 1 1 0 No 
1 1 1 1 1 1 0 No 
0 0 0 1 0 0 1 No 
1 1 0 1 1 1 0 No 
0 0 1 1 0 1 0 Yes 
1 1 0 1 1 1 0 No 
1 1 0 1 1 0 0 No 
0 0 0 1 1 0 0 No 
1 0 0 1 0 1 0 No 
1 0 0 1 1 1 0 No 
0 0 0 1 0 0 1 No 
1 1 0 1 1 1 0 No 
1 1 1 1 1 1 1 Yes 
1 1 1 1 0 0 0 No 
1 1 1 1 1 1 0 No 
0 0 1 1 0 1 0 Yes 
1 1 1 1 1 1 1 Yes 
1 1 1 1 0 0 0 No 
1 1 1 1 1 1 0 No 
1 1 1 1 0 0 0 No 
1 1 1 1 1 1 0 No 
1 1 1 1 1 1 1 Yes 
0 0 1 1 0 1 0 Yes 
0 0 1 0 1 1 0 Yes 
0 1 0 0 1 0 0 Yes 
1 0 1 0 1 0 1 Yes 
0 0 0 0 1 0 0 Yes 
0 1 0 0 0 1 0 Yes 
1 0 0 0 0 1 1 Yes 
0 0 0 0 0 0 1 Yes 
1 0 0 0 0 0 1 Yes 
1 0 1 0 1 0 1 Yes 
Results: 80 / 100
0 1 0 1 0 1 1 Yes 
0 0 1 1 1 0 1 No 
0 1 1 0 1 0 1 Yes 
0 0 0 1 1 0 1 No 
1 1 0 0 0 0 1 Yes 
0 0 1 0 1 1 1 Yes 
0 0 0 1 0 0 1 No 
0 1 0 0 1 1 0 Yes 
1 1 0 1 1 1 0 No 
1 0 0 1 0 1 1 No 
0 0 1 1 1 1 0 Yes 
1 0 1 0 1 1 1 Yes 
0 0 1 1 0 0 0 No 
1 0 1 1 1 0 1 Yes 
0 1 0 0 1 0 1 Yes 
0 0 0 1 1 1 0 Yes 
1 0 1 0 0 1 1 Yes 
1 0 1 0 1 0 1 Yes 
1 1 0 1 0 0 0 No 
0 0 1 1 0 0 0 No 
0 0 0 0 1 0 0 Yes 
0 0 1 0 1 0 0 Yes 
0 0 1 1 0 1 0 Yes 
1 0 1 0 0 1 1 Yes 
1 0 1 0 1 0 0 No 
1 1 1 1 0 1 0 No 
0 1 1 0 0 0 0 Yes 
1 0 1 1 0 0 1 No 
0 1 0 1 0 1 0 Yes 
1 0 0 0 0 0 1 Yes 
1 1 1 1 0 0 0 No 
0 1 0 0 0 1 0 Yes 
1 0 0 1 1 1 0 No 
0 0 1 1 0 1 0 Yes 
1 1 1 1 0 1 0 No 
0 0 1 0 1 1 0 Yes 
1 1 1 1 1 0 0 No 
1 1 0 1 1 1 0 No 
0 1 0 0 1 1 0 Yes 
0 0 1 1 1 1 1 Yes 
1 0 0 0 1 0 0 No 
1 0 1 0 1 1 0 No 
1 1 1 1 0 1 1 No 
0 0 1 0 0 0 0 Yes 
1 0 1 0 0 1 1 Yes 
0 0 1 0 1 0 1 Yes 
0 1 1 0 0 1 1 Yes 
1 0 0 1 0 0 0 No 
0 1 0 0 1 1 1 Yes 
0 0 0 1 1 0 0 No 
0 1 0 1 0 1 1 Yes 
0 0 1 1 1 0 1 No 
0 1 1 0 1 0 1 Yes 
0 0 0 1 1 0 1 No 
1 1 0 0 0 0 1 Yes 
0 0 1 0 1 1 1 Yes 
0 0 0 1 0 0 1 No 
0 1 0 0 1 1 0 Yes 
1 1 0 1 1 1 0 No 
1 0 0 1 0 1 1 No 
0 0 1 1 1 1 0 Yes 
1 0 1 0 1 1 1 Yes 
0 0 1 1 0 0 0 No 
1 0 1 1 1 0 1 Yes 
0 1 0 0 1 0 1 Yes 
0 0 0 1 1 1 0 Yes 
1 0 1 0 0 1 1 Yes 
1 0 1 0 1 0 1 Yes 
1 1 0 1 0 0 0 No 
0 0 1 1 0 0 0 No 
0 0 0 0 1 0 0 Yes 
0 0 1 0 1 0 0 Yes 
0 0 1 1 0 1 0 Yes 
1 0 1 0 0 1 1 Yes 
1 0 1 0 1 0 0 No 
1 1 1 1 0 1 0 No 
0 1 1 0 0 0 0 Yes 
1 0 1 1 0 0 1 No 
0 1 0 1 0 1 0 Yes 
1 0 0 0 0 0 1 Yes 
1 1 1 1 0 0 0 No 
0 1 0 0 0 1 0 Yes 
1 0 0 1 1 1 0 No 
0 0 1 1 0 1 0 Yes 
1 1 1 1 0 1 0 No 
0 0 1 0 1 1 0 Yes 
1 1 1 1 1 0 0 No 
1 1 0 1 1 1 0 No 
0 1 0 0 1 1 0 Yes 
0 0 1 1 1 1 1 Yes 
1 0 0 0 1 0 0 No 
1 0 1 0 1 1 0 No 
1 1 1 1 0 1 1 No 
0 0 1 0 0 0 0 Yes 
1 0 1 0 0 1 1 Yes 
0 0 1 0 1 0 1 Yes 
0 1 1 0 0 1 1 Yes 
1 0 0 1 0 0 0 No 
0 1 0 0 1 1 1 Yes 
0 0 0 1 1 0 0 No 
0 1 0 1 0 1 1 Yes 
0 0 1 1 1 0 1 No 
0 0 0 1 1 0 1 No 
0 0 0 1 0 0 1 No 
1 1 0 1 1 1 0 No 
1 0 0 1 0 1 1 No 
0 0 1 1 1 1 0 Yes 
0 0 1 1 0 0 0 No 
1 0 1 1 1 0 1 Yes 
0 0 0 1 1 1 0 Yes 
1 1 0 1 0 0 0 No 
0 0 1 1 0 0 0 No 
0 0 1 1 0 1 0 Yes 
1 1 1 1 0 1 0 No 
1 0 1 1 0 0 1 No 
0 1 0 1 0 1 0 Yes 
1 1 1 1 0 0 0 No 
1 0 0 1 1 1 0 No 
0 0 1 1 0 1 0 Yes 
1 1 1 1 0 1 0 No 
1 1 1 1 1 0 0 No 
1 1 0 1 1 1 0 No 
0 0 1 1 1 1 1 Yes 
1 1 1 1 0 1 1 No 
1 0 0 1 0 0 0 No 
0 0 0 1 1 0 0 No 
1 1 0 1 1 1 0 No 
1 0 0 1 0 1 1 No 
1 0 1 1 1 0 1 Yes 
1 1 0 1 0 0 0 No 
1 1 1 1 0 1 0 No 
1 0 1 1 0 0 1 No 
1 1 1 1 0 0 0 No 
1 0 0 1 1 1 0 No 
1 1 1 1 0 1 0 No 
1 1 1 1 1 0 0 No 
1 1 0 1 1 1 0 No 
1 1 1 1 0 1 1 No 
1 0 0 1 0 0 0 No 
1 1 0 1 1 1 0 No 
1 1 0 1 0 0 0 No 
1 1 1 1 0 1 0 No 
1 1 1 1 0 0 0 No 
1 0 0 1 1 1 0 No 
1 1 1 1 0 1 0 No 
1 1 1 1 1 0 0 No 
1 1 0 1 1 1 0 No 
1 0 0 1 0 0 0 No 
1 0 0 1 0 1 1 No 
1 0 1 1 1 0 1 Yes 
1 0 1 1 0 0 1 No 
1 1 1 1 0 1 1 No 
1 0 1 1 1 0 1 Yes 
1 0 0 1 0 1 1 No 
1 0 1 1 0 0 1 No 
1 1 1 1 0 1 1 No 
0 1 0 1 0 1 1 Yes 
0 0 1 1 1 0 1 No 
0 0 0 1 1 0 1 No 
0 0 0 1 0 0 1 No 
0 0 1 1 1 1 0 Yes 
0 0 1 1 0 0 0 No 
0 0 0 1 1 1 0 Yes 
0 0 1 1 0 0 0 No 
0 0 1 1 0 1 0 Yes 
0 1 0 1 0 1 0 Yes 
0 0 1 1 0 1 0 Yes 
0 0 1 1 1 1 1 Yes 
0 0 0 1 1 0 0 No 
0 1 0 1 0 1 1 Yes 
0 0 1 1 1 1 0 Yes 
0 0 0 1 1 1 0 Yes 
0 0 1 1 0 1 0 Yes 
0 1 0 1 0 1 0 Yes 
0 0 1 1 0 1 0 Yes 
0 0 1 1 1 1 1 Yes 
0 0 1 1 1 0 1 No 
0 0 0 1 1 0 1 No 
0 0 0 1 0 0 1 No 
0 0 1 1 0 0 0 No 
0 0 1 1 0 0 0 No 
0 0 0 1 1 0 0 No 
0 1 1 0 1 0 1 Yes 
1 1 0 0 0 0 1 Yes 
0 0 1 0 1 1 1 Yes 
0 1 0 0 1 1 0 Yes 
1 0 1 0 1 1 1 Yes 
0 1 0 0 1 0 1 Yes 
1 0 1 0 0 1 1 Yes 
1 0 1 0 1 0 1 Yes 
0 0 0 0 1 0 0 Yes 
0 0 1 0 1 0 0 Yes 
1 0 1 0 0 1 1 Yes 
1 0 1 0 1 0 0 No 
0 1 1 0 0 0 0 Yes 
1 0 0 0 0 0 1 Yes 
0 1 0 0 0 1 0 Yes 
0 0 1 0 1 1 0 Yes 
0 1 0 0 1 1 0 Yes 
1 0 0 0 1 0 0 No 
1 0 1 0 1 1 0 No 
0 0 1 0 0 0 0 Yes 
1 0 1 0 0 1 1 Yes 
0 0 1 0 1 0 1 Yes 
0 1 1 0 0 1 1 Yes 
0 1 0 0 1 1 1 Yes 
1 1 0 0 0 0 1 Yes 
1 0 1 0 1 1 1 Yes 
1 0 1 0 0 1 1 Yes 
1 0 1 0 1 0 1 Yes 
1 0 1 0 0 1 1 Yes 
1 0 1 0 1 0 0 No 
1 0 0 0 0 0 1 Yes 
1 0 0 0 1 0 0 No 
1 0 1 0 1 1 0 No 
1 0 1 0 0 1 1 Yes 
1 0 1 0 1 0 0 No 
1 0 0 0 1 0 0 No 
1 0 1 0 1 1 0 No 
1 1 0 0 0 0 1 Yes 
1 0 1 0 1 1 1 Yes 
1 0 1 0 0 1 1 Yes 
1 0 1 0 1 0 1 Yes 
1 0 1 0 0 1 1 Yes 
1 0 0 0 0 0 1 Yes 
1 0 1 0 0 1 1 Yes 
0 1 1 0 1 0 1 Yes 
0 0 1 0 1 1 1 Yes 
0 1 0 0 1 1 0 Yes 
0 1 0 0 1 0 1 Yes 
0 0 0 0 1 0 0 Yes 
0 0 1 0 1 0 0 Yes 
0 1 1 0 0 0 0 Yes 
0 1 0 0 0 1 0 Yes 
0 0 1 0 1 1 0 Yes 
0 1 0 0 1 1 0 Yes 
0 0 1 0 0 0 0 Yes 
0 0 1 0 1 0 1 Yes 
0 1 1 0 0 1 1 Yes 
0 1 0 0 1 1 1 Yes 
Results: 96 / 100
Results: 40 / 100
1 0 0 1 1 1 0 No 
1 1 0 0 0 0 1 Yes 
1 1 1 1 0 1 1 No 
1 1 0 0 0 0 1 Yes 
0 0 0 1 1 0 1 No 
1 1 1 1 1 1 0 No 
1 1 1 1 0 1 0 No 
1 0 1 0 1 1 1 Yes 
0 0 0 1 1 0 0 No 
0 0 0 0 1 1 0 Yes 
0 0 1 1 0 0 0 No 
1 1 0 1 1 0 0 No 
1 1 1 1 1 1 1 Yes 
0 0 1 1 1 1 0 Yes 
0 0 1 1 1 1 1 Yes 
0 1 0 0 1 0 0 Yes 
1 0 1 1 1 1 1 Yes 
0 0 1 0 0 0 0 Yes 
1 0 0 1 1 0 0 No 
0 1 0 0 1 1 0 Yes 
0 0 0 0 0 0 0 Yes 
0 1 0 0 0 0 1 Yes 
1 1 0 1 1 1 0 No 
0 0 1 1 1 0 1 No 
1 0 0 0 1 0 0 No 
0 1 1 1 0 1 0 Yes 
0 1 0 1 0 1 0 Yes 
1 0 1 0 0 1 1 Yes 
0 0 0 1 1 1 0 Yes 
1 1 0 1 0 0 0 No 
0 0 1 0 0 1 0 Yes 
1 1 1 1 0 0 0 No 
1 0 1 0 0 1 1 Yes 
0 0 0 1 1 0 1 No 
1 0 1 1 0 0 1 No 
1 1 1 0 0 0 0 Yes 
1 0 0 1 0 0 0 No 
0 0 0 1 0 0 0 No 
1 0 1 0 1 0 1 Yes 
0 0 0 0 1 0 0 Yes 
0 0 0 1 0 0 1 No 
1 0 1 0 1 0 1 Yes 
1 0 1 0 1 1 0 No 
0 1 0 1 1 1 0 Yes 
0 1 1 1 0 0 1 No 
1 0 0 0 0 1 1 Yes 
0 1 0 1 1 0 1 No 
0 1 1 0 0 0 0 Yes 
1 0 0 0 0 1 0 Yes 
1 0 0 1 1 1 0 No 
1 1 0 0 0 0 1 Yes 
1 1 1 1 0 1 1 No 
1 1 0 0 0 0 1 Yes 
0 0 0 1 1 0 1 No 
1 1 1 1 1 1 0 No 
1 1 1 1 0 1 0 No 
1 0 1 0 1 1 1 Yes 
0 0 0 1 1 0 0 No 
0 0 0 0 1 1 0 Yes 
0 0 1 1 0 0 0 No 
1 1 0 1 1 0 0 No 
1 1 1 1 1 1 1 Yes 
0 0 1 1 1 1 0 Yes 
0 0 1 1 1 1 1 Yes 
0 1 0 0 1 0 0 Yes 
1 0 1 1 1 1 1 Yes 
0 0 1 0 0 0 0 Yes 
1 0 0 1 1 0 0 No 
0 1 0 0 1 1 0 Yes 
0 0 0 0 0 0 0 Yes 
0 1 0 0 0 0 1 Yes 
1 1 0 1 1 1 0 No 
0 0 1 1 1 0 1 No 
1 0 0 0 1 0 0 No 
0 1 1 1 0 1 0 Yes 
0 1 0 1 0 1 0 Yes 
1 0 1 0 0 1 1 Yes 
0 0 0 1 1 1 0 Yes 
1 1 0 1 0 0 0 No 
0 0 1 0 0 1 0 Yes 
1 1 1 1 0 0 0 No 
1 0 1 0 0 1 1 Yes 
0 0 0 1 1 0 1 No 
1 0 1 1 0 0 1 No 
1 1 1 0 0 0 0 Yes 
1 0 0 1 0 0 0 No 
0 0 0 1 0 0 0 No 
1 0 1 0 1 0 1 Yes 
0 0 0 0 1 0 0 Yes 
0 0 0 1 0 0 1 No 
1 0 1 0 1 0 1 Yes 
1 0 1 0 1 1 0 No 
0 1 0 1 1 1 0 Yes 
0 1 1 1 0 0 1 No 
1 0 0 0 0 1 1 Yes 
0 1 0 1 1 0 1 No 
0 1 1 0 0 0 0 Yes 
1 0 0 0 0 1 0 Yes 
1 0 0 1 1 1 0 No 
1 1 1 1 0 1 1 No 
0 0 0 1 1 0 1 No 
1 1 1 1 1 1 0 No 
1 1 1 1 0 1 0 No 
0 0 0 1 1 0 0 No 
0 0 1 1 0 0 0 No 
1 1 0 1 1 0 0 No 
1 1 1 1 1 1 1 Yes 
0 0 1 1 1 1 0 Yes 
0 0 1 1 1 1 1 Yes 
1 0 1 1 1 1 1 Yes 
1 0 0 1 1 0 0 No 
1 1 0 1 1 1 0 No 
0 0 1 1 1 0 1 No 
0 1 1 1 0 1 0 Yes 
0 1 0 1 0 1 0 Yes 
0 0 0 1 1 1 0 Yes 
1 1 0 1 0 0 0 No 
1 1 1 1 0 0 0 No 
0 0 0 1 1 0 1 No 
1 0 1 1 0 0 1 No 
1 0 0 1 0 0 0 No 
0 0 0 1 0 0 0 No 
0 0 0 1 0 0 1 No 
0 1 0 1 1 1 0 Yes 
0 1 1 1 0 0 1 No 
0 1 0 1 1 0 1 No 
1 0 0 1 1 1 0 No 
1 1 1 1 0 1 1 No 
1 1 1 1 1 1 0 No 
1 1 1 1 0 1 0 No 
1 1 1 1 1 1 1 Yes 
0 0 1 1 1 1 0 Yes 
0 0 1 1 1 1 1 Yes 
1 0 1 1 1 1 1 Yes 
1 1 0 1 1 1 0 No 
0 1 1 1 0 1 0 Yes 
0 1 0 1 0 1 0 Yes 
0 0 0 1 1 1 0 Yes 
0 1 0 1 1 1 0 Yes 
1 0 0 1 1 1 0 No 
1 1 1 1 0 1 1 No 
1 1 1 1 1 1 0 No 
1 1 1 1 0 1 0 No 
1 1 1 1 1 1 1 Yes 
1 0 1 1 1 1 1 Yes 
1 1 0 1 1 1 0 No 
1 0 0 1 1 1 0 No 
1 1 1 1 1 1 0 No 
1 1 1 1 0 1 0 No 
1 1 0 1 1 1 0 No 
1 1 1 1 0 1 1 No 
1 1 1 1 1 1 1 Yes 
1 0 1 1 1 1 1 Yes 
1 1 1 1 1 1 1 Yes 
1 0 1 1 1 1 1 Yes 
1 1 1 1 0 1 1 No 
0 0 1 1 1 1 0 Yes 
0 0 1 1 1 1 1 Yes 
0 1 1 1 0 1 0 Yes 
0 1 0 1 0 1 0 Yes 
0 0 0 1 1 1 0 Yes 
0 1 0 1 1 1 0 Yes 
0 0 0 1 1 0 1 No 
0 0 0 1 1 0 0 No 
0 0 1 1 0 0 0 No 
1 1 0 1 1 0 0 No 
1 0 0 1 1 0 0 No 
0 0 1 1 1 0 1 No 
1 1 0 1 0 0 0 No 
1 1 1 1 0 0 0 No 
0 0 0 1 1 0 1 No 
1 0 1 1 0 0 1 No 
1 0 0 1 0 0 0 No 
0 0 0 1 0 0 0 No 
0 0 0 1 0 0 1 No 
0 1 1 1 0 0 1 No 
0 1 0 1 1 0 1 No 
1 1 0 0 0 0 1 Yes 
1 1 0 0 0 0 1 Yes 
1 0 1 0 1 1 1 Yes 
0 0 0 0 1 1 0 Yes 
0 1 0 0 1 0 0 Yes 
0 0 1 0 0 0 0 Yes 
0 1 0 0 1 1 0 Yes 
0 0 0 0 0 0 0 Yes 
0 1 0 0 0 0 1 Yes 
1 0 0 0 1 0 0 No 
1 0 1 0 0 1 1 Yes 
0 0 1 0 0 1 0 Yes 
1 0 1 0 0 1 1 Yes 
1 1 1 0 0 0 0 Yes 
1 0 1 0 1 0 1 Yes 
0 0 0 0 1 0 0 Yes 
1 0 1 0 1 0 1 Yes 
1 0 1 0 1 1 0 No 
1 0 0 0 0 1 1 Yes 
0 1 1 0 0 0 0 Yes 
1 0 0 0 0 1 0 Yes 
1 0 1 0 1 1 1 Yes 
0 0 0 0 1 1 0 Yes 
0 1 0 0 1 0 0 Yes 
0 1 0 0 1 1 0 Yes 
1 0 0 0 1 0 0 No 
1 0 1 0 1 0 1 Yes 
0 0 0 0 1 0 0 Yes 
1 0 1 0 1 0 1 Yes 
1 0 1 0 1 1 0 No 
1 0 1 0 1 1 1 Yes 
1 0 0 0 1 0 0 No 
1 0 1 0 1 0 1 Yes 
1 0 1 0 1 0 1 Yes 
1 0 1 0 1 1 0 No 
1 0 0 0 1 0 0 No 
1 0 1 0 1 1 0 No 
1 0 1 0 1 1 1 Yes 
1 0 1 0 1 0 1 Yes 
1 0 1 0 1 0 1 Yes 
0 0 0 0 1 1 0 Yes 
0 1 0 0 1 0 0 Yes 
0 1 0 0 1 1 0 Yes 
0 0 0 0 1 0 0 Yes 
1 1 0 0 0 0 1 Yes 
1 1 0 0 0 0 1 Yes 
0 0 1 0 0 0 0 Yes 
0 0 0 0 0 0 0 Yes 
0 1 0 0 0 0 1 Yes 
1 0 1 0 0 1 1 Yes 
0 0 1 0 0 1 0 Yes 
1 0 1 0 0 1 1 Yes 
1 1 1 0 0 0 0 Yes 
1 0 0 0 0 1 1 Yes 
0 1 1 0 0 0 0 Yes 
1 0 0 0 0 1 0 Yes 
Results: 98 / 100
Results: 40 / 100
Results: 40 / 100
1 0 0 1 0 1 0 No 
1 0 0 1 0 1 0 No 
Results: 40 / 100


Test case 20
0 1 0 1 0 1 0 Yes 
1 0 1 1 1 0 1 Yes 
0 1 0 1 0 1 0 Yes 
1 0 1 1 1 0 1 Yes 
Results: 60 / 100
0 1 1 0 1 1 1 Yes 
0 1 0 0 0 0 1 Yes 
0 1 0 0 1 0 0 Yes 
0 0 1 1 1 0 0 No 
1 0 1 0 0 1 1 Yes 
0 1 1 0 1 1 1 Yes 
0 1 0 0 0 0 1 Yes 
0 1 0 0 1 0 0 Yes 
0 0 1 1 1 0 0 No 
1 0 1 0 0 1 1 Yes 
0 0 1 1 1 0 0 No 
0 1 1 0 1 1 1 Yes 
0 1 0 0 0 0 1 Yes 
0 1 0 0 1 0 0 Yes 
1 0 1 0 0 1 1 Yes 
Results: 80 / 100
1 0 0 0 1 0 0 No 
0 1 0 0 0 1 0 Yes 
0 1 0 0 1 1 0 Yes 
0 1 1 0 0 0 1 Yes 
0 1 0 0 1 0 1 Yes 
0 0 0 0 1 1 0 Yes 
1 1 0 1 1 0 0 No 
0 0 0 0 0 0 1 Yes 
0 0 0 1 1 0 1 No 
0 1 1 0 0 1 0 Yes 
1 0 0 0 1 0 0 No 
0 1 0 0 0 1 0 Yes 
0 1 0 0 1 1 0 Yes 
0 1 1 0 0 0 1 Yes 
0 1 0 0 1 0 1 Yes 
0 0 0 0 1 1 0 Yes 
1 1 0 1 1 0 0 No 
0 0 0 0 0 0 1 Yes 
0 0 0 1 1 0 1 No 
0 1 1 0 0 1 0 Yes 
1 0 0 0 1 0 0 No 
1 1 0 1 1 0 0 No 
0 1 0 0 0 1 0 Yes 
0 1 0 0 1 1 0 Yes 
0 1 1 0 0 0 1 Yes 
0 1 0 0 1 0 1 Yes 
0 0 0 0 1 1 0 Yes 
0 0 0 0 0 0 1 Yes 
0 0 0 1 1 0 1 No 
0 1 1 0 0 1 0 Yes 
0 0 0 1 1 0 1 No 
0 1 0 0 0 1 0 Yes 
0 1 0 0 1 1 0 Yes 
0 1 1 0 0 0 1 Yes 
0 1 0 0 1 0 1 Yes 
0 0 0 0 1 1 0 Yes 
0 0 0 0 0 0 1 Yes 
0 1 1 0 0 1 0 Yes 
Results: 68 / 100
1 0 1 0 1 0 1 Yes 
0 1 0 0 0 0 1 Yes 
0 1 1 1 1 0 0 No 
0 1 1 1 0 0 1 No 
1 0 0 0 0 0 1 Yes 
0 0 1 1 0 1 0 Yes 
0 0 1 1 1 1 0 Yes 
0 1 0 1 0 1 0 Yes 
1 1 0 1 1 0 0 No 
1 0 1 1 1 0 0 No 
0 0 1 1 1 0 0 No 
1 1 1 1 1 1 0 No 
0 1 0 0 1 0 1 Yes 
1 0 1 1 1 0 1 Yes 
0 0 1 0 0 0 1 Yes 
1 1 0 1 0 0 0 No 
0 0 0 0 1 1 1 Yes 
0 1 1 1 0 1 0 Yes 
1 0 1 1 1 0 1 Yes 
0 1 1 0 1 0 1 Yes 
1 0 1 0 1 0 1 Yes 
0 1 0 0 0 0 1 Yes 
0 1 1 1 1 0 0 No 
0 1 1 1 0 0 1 No 
1 0 0 0 0 0 1 Yes 
0 0 1 1 0 1 0 Yes 
0 0 1 1 1 1 0 Yes 
0 1 0 1 0 1 0 Yes 
1 1 0 1 1 0 0 No 
1 0 1 1 1 0 0 No 
0 0 1 1 1 0 0 No 
1 1 1 1 1 1 0 No 
0 1 0 0 1 0 1 Yes 
1 0 1 1 1 0 1 Yes 
0 0 1 0 0 0 1 Yes 
1 1 0 1 0 0 0 No 
0 0 0 0 1 1 1 Yes 
0 1 1 1 0 1 0 Yes 
1 0 1 1 1 0 1 Yes 
0 1 1 0 1 0 1 Yes 
0 1 1 1 1 0 0 No 
0 1 1 1 0 0 1 No 
0 0 1 1 0 1 0 Yes 
0 0 1 1 1 1 0 Yes 
0 1 0 1 0 1 0 Yes 
1 1 0 1 1 0 0 No 
1 0 1 1 1 0 0 No 
0 0 1 1 1 0 0 No 
1 1 1 1 1 1 0 No 
1 0 1 1 1 0 1 Yes 
1 1 0 1 0 0 0 No 
0 1 1 1 0 1 0 Yes 
1 0 1 1 1 0 1 Yes 
0 0 1 1 0 1 0 Yes 
0 0 1 1 1 1 0 Yes 
0 1 0 1 0 1 0 Yes 
1 1 1 1 1 1 0 No 
0 1 1 1 0 1 0 Yes 
1 1 1 1 1 1 0 No 
0 0 1 1 0 1 0 Yes 
0 0 1 1 1 1 0 Yes 
0 1 0 1 0 1 0 Yes 
0 1 1 1 0 1 0 Yes 
0 1 1 1 1 0 0 No 
0 1 1 1 0 0 1 No 
1 1 0 1 1 0 0 No 
1 0 1 1 1 0 0 No 
0 0 1 1 1 0 0 No 
1 0 1 1 1 0 1 Yes 
1 1 0 1 0 0 0 No 
1 0 1 1 1 0 1 Yes 
0 1 1 1 1 0 0 No 
1 1 0 1 1 0 0 No 
1 0 1 1 1 0 0 No 
0 0 1 1 1 0 0 No 
1 1 0 1 0 0 0 No 
0 1 1 1 0 0 1 No 
1 0 1 1 1 0 1 Yes 
1 0 1 1 1 0 1 Yes 
1 0 1 1 1 0 1 Yes 
1 0 1 1 1 0 1 Yes 
0 1 1 1 0 0 1 No 
1 0 1 0 1 0 1 Yes 
0 1 0 0 0 0 1 Yes 
1 0 0 0 0 0 1 Yes 
0 1 0 0 1 0 1 Yes 
0 0 1 0 0 0 1 Yes 
0 0 0 0 1 1 1 Yes 
0 1 1 0 1 0 1 Yes 
Results: 90 / 100
0 1 0 0 1 0 1 Yes 
0 0 1 0 0 0 0 Yes 
1 1 0 1 0 0 0 No 
1 1 0 1 0 1 1 No 
1 0 1 1 0 0 1 No 
0 1 1 0 0 0 1 Yes 
0 0 1 1 1 1 0 Yes 
0 1 1 0 0 0 0 Yes 
0 1 0 0 0 1 0 Yes 
1 0 1 1 1 0 1 Yes 
0 0 1 1 0 0 0 No 
0 0 0 0 1 0 0 Yes 
1 0 0 1 0 1 1 No 
0 1 1 0 1 0 1 Yes 
0 1 0 1 0 1 0 Yes 
0 0 1 1 1 1 1 Yes 
0 1 0 0 1 1 0 Yes 
1 1 0 0 0 0 1 Yes 
1 1 0 1 1 0 0 No 
1 0 1 1 1 1 1 Yes 
1 0 0 1 1 0 0 No 
1 1 0 0 0 1 1 Yes 
1 0 0 1 0 0 0 No 
0 0 0 1 1 0 1 No 
1 0 1 0 0 1 1 Yes 
0 0 1 1 1 1 0 Yes 
0 0 1 0 1 0 1 Yes 
1 0 1 1 0 0 1 No 
0 0 0 0 1 0 0 Yes 
0 0 1 1 0 1 0 Yes 
0 1 1 1 0 0 1 No 
0 0 0 1 0 0 1 No 
0 1 0 0 1 0 0 Yes 
1 1 1 0 0 0 0 Yes 
1 1 1 1 1 1 1 Yes 
0 1 0 1 1 1 0 Yes 
1 0 1 0 0 0 0 Yes 
0 1 0 1 1 0 1 No 
1 0 1 0 1 0 0 No 
1 0 1 0 0 1 1 Yes 
1 0 0 0 1 0 0 No 
0 1 0 0 0 1 0 Yes 
0 0 0 0 0 0 1 Yes 
1 0 0 0 0 0 1 Yes 
1 0 1 0 1 0 1 Yes 
1 1 0 1 0 0 0 No 
1 0 1 1 1 0 1 Yes 
0 0 0 1 1 1 0 Yes 
1 0 0 1 0 1 0 No 
1 0 1 0 1 1 1 Yes 
0 1 0 0 1 0 1 Yes 
0 0 1 0 0 0 0 Yes 
1 1 0 1 0 0 0 No 
1 1 0 1 0 1 1 No 
1 0 1 1 0 0 1 No 
0 1 1 0 0 0 1 Yes 
0 0 1 1 1 1 0 Yes 
0 1 1 0 0 0 0 Yes 
0 1 0 0 0 1 0 Yes 
1 0 1 1 1 0 1 Yes 
0 0 1 1 0 0 0 No 
0 0 0 0 1 0 0 Yes 
1 0 0 1 0 1 1 No 
0 1 1 0 1 0 1 Yes 
0 1 0 1 0 1 0 Yes 
0 0 1 1 1 1 1 Yes 
0 1 0 0 1 1 0 Yes 
1 1 0 0 0 0 1 Yes 
1 1 0 1 1 0 0 No 
1 0 1 1 1 1 1 Yes 
1 0 0 1 1 0 0 No 
1 1 0 0 0 1 1 Yes 
1 0 0 1 0 0 0 No 
0 0 0 1 1 0 1 No 
1 0 1 0 0 1 1 Yes 
0 0 1 1 1 1 0 Yes 
0 0 1 0 1 0 1 Yes 
1 0 1 1 0 0 1 No 
0 0 0 0 1 0 0 Yes 
0 0 1 1 0 1 0 Yes 
0 1 1 1 0 0 1 No 
0 0 0 1 0 0 1 No 
0 1 0 0 1 0 0 Yes 
1 1 1 0 0 0 0 Yes 
1 1 1 1 1 1 1 Yes 
0 1 0 1 1 1 0 Yes 
1 0 1 0 0 0 0 Yes 
0 1 0 1 1 0 1 No 
1 0 1 0 1 0 0 No 
1 0 1 0 0 1 1 Yes 
1 0 0 0 1 0 0 No 
0 1 0 0 0 1 0 Yes 
0 0 0 0 0 0 1 Yes 
1 0 0 0 0 0 1 Yes 
1 0 1 0 1 0 1 Yes 
1 1 0 1 0 0 0 No 
1 0 1 1 1 0 1 Yes 
0 0 0 1 1 1 0 Yes 
1 0 0 1 0 1 0 No 
1 0 1 0 1 1 1 Yes 
1 1 0 1 0 0 0 No 
1 1 0 1 0 1 1 No 
1 0 1 1 0 0 1 No 
0 0 1 1 1 1 0 Yes 
1 0 1 1 1 0 1 Yes 
0 0 1 1 0 0 0 No 
1 0 0 1 0 1 1 No 
0 1 0 1 0 1 0 Yes 
0 0 1 1 1 1 1 Yes 
1 1 0 1 1 0 0 No 
1 0 1 1 1 1 1 Yes 
1 0 0 1 1 0 0 No 
1 0 0 1 0 0 0 No 
0 0 0 1 1 0 1 No 
0 0 1 1 1 1 0 Yes 
1 0 1 1 0 0 1 No 
0 0 1 1 0 1 0 Yes 
0 1 1 1 0 0 1 No 
0 0 0 1 0 0 1 No 
1 1 1 1 1 1 1 Yes 
0 1 0 1 1 1 0 Yes 
0 1 0 1 1 0 1 No 
1 1 0 1 0 0 0 No 
1 0 1 1 1 0 1 Yes 
0 0 0 1 1 1 0 Yes 
1 0 0 1 0 1 0 No 
1 1 0 1 0 1 1 No 
0 0 1 1 1 1 0 Yes 
1 0 0 1 0 1 1 No 
0 1 0 1 0 1 0 Yes 
0 0 1 1 1 1 1 Yes 
1 0 1 1 1 1 1 Yes 
0 0 1 1 1 1 0 Yes 
0 0 1 1 0 1 0 Yes 
1 1 1 1 1 1 1 Yes 
0 1 0 1 1 1 0 Yes 
0 0 0 1 1 1 0 Yes 
1 0 0 1 0 1 0 No 
1 1 0 1 0 1 1 No 
1 0 0 1 0 1 1 No 
1 0 1 1 1 1 1 Yes 
1 1 1 1 1 1 1 Yes 
1 0 0 1 0 1 0 No 
1 1 0 1 0 1 1 No 
1 0 0 1 0 1 1 No 
1 0 0 1 0 1 0 No 
1 0 1 1 1 1 1 Yes 
1 1 1 1 1 1 1 Yes 
0 0 1 1 1 1 0 Yes 
0 1 0 1 0 1 0 Yes 
0 0 1 1 1 1 1 Yes 
0 0 1 1 1 1 0 Yes 
0 0 1 1 0 1 0 Yes 
0 1 0 1 1 1 0 Yes 
0 0 0 1 1 1 0 Yes 
1 1 0 1 0 0 0 No 
1 0 1 1 0 0 1 No 
1 0 1 1 1 0 1 Yes 
0 0 1 1 0 0 0 No 
1 1 0 1 1 0 0 No 
1 0 0 1 1 0 0 No 
1 0 0 1 0 0 0 No 
0 0 0 1 1 0 1 No 
1 0 1 1 0 0 1 No 
0 1 1 1 0 0 1 No 
0 0 0 1 0 0 1 No 
0 1 0 1 1 0 1 No 
1 1 0 1 0 0 0 No 
1 0 1 1 1 0 1 Yes 
1 1 0 1 0 0 0 No 
1 1 0 1 1 0 0 No 
1 0 0 1 1 0 0 No 
1 0 0 1 0 0 0 No 
0 0 0 1 1 0 1 No 
0 0 0 1 0 0 1 No 
0 1 0 1 1 0 1 No 
1 1 0 1 0 0 0 No 
1 0 1 1 0 0 1 No 
1 0 1 1 1 0 1 Yes 
0 0 1 1 0 0 0 No 
1 0 1 1 0 0 1 No 
0 1 1 1 0 0 1 No 
1 0 1 1 1 0 1 Yes 
1 0 1 1 1 0 1 Yes 
1 0 1 1 1 0 1 Yes 
1 0 1 1 0 0 1 No 
0 0 1 1 0 0 0 No 
1 0 1 1 0 0 1 No 
0 1 1 1 0 0 1 No 
0 1 0 0 1 0 1 Yes 
0 0 1 0 0 0 0 Yes 
0 1 1 0 0 0 1 Yes 
0 1 1 0 0 0 0 Yes 
0 1 0 0 0 1 0 Yes 
0 0 0 0 1 0 0 Yes 
0 1 1 0 1 0 1 Yes 
0 1 0 0 1 1 0 Yes 
1 1 0 0 0 0 1 Yes 
1 1 0 0 0 1 1 Yes 
1 0 1 0 0 1 1 Yes 
0 0 1 0 1 0 1 Yes 
0 0 0 0 1 0 0 Yes 
0 1 0 0 1 0 0 Yes 
1 1 1 0 0 0 0 Yes 
1 0 1 0 0 0 0 Yes 
1 0 1 0 1 0 0 No 
1 0 1 0 0 1 1 Yes 
1 0 0 0 1 0 0 No 
0 1 0 0 0 1 0 Yes 
0 0 0 0 0 0 1 Yes 
1 0 0 0 0 0 1 Yes 
1 0 1 0 1 0 1 Yes 
1 0 1 0 1 1 1 Yes 
1 1 0 0 0 0 1 Yes 
1 1 0 0 0 1 1 Yes 
1 0 1 0 0 1 1 Yes 
1 1 1 0 0 0 0 Yes 
1 0 1 0 0 0 0 Yes 
1 0 1 0 1 0 0 No 
1 0 1 0 0 1 1 Yes 
1 0 0 0 1 0 0 No 
1 0 0 0 0 0 1 Yes 
1 0 1 0 1 0 1 Yes 
1 0 1 0 1 1 1 Yes 
1 0 1 0 1 0 0 No 
1 0 0 0 1 0 0 No 
1 0 1 0 1 0 1 Yes 
1 0 1 0 1 1 1 Yes 
1 0 1 0 1 0 0 No 
1 0 0 0 1 0 0 No 
1 0 1 0 1 0 1 Yes 
1 0 1 0 1 1 1 Yes 
1 1 0 0 0 0 1 Yes 
1 1 0 0 0 1 1 Yes 
1 0 1 0 0 1 1 Yes 
1 1 1 0 0 0 0 Yes 
1 0 1 0 0 0 0 Yes 
1 0 1 0 0 1 1 Yes 
1 0 0 0 0 0 1 Yes 
0 1 0 0 1 0 1 Yes 
0 0 1 0 0 0 0 Yes 
0 1 1 0 0 0 1 Yes 
0 1 1 0 0 0 0 Yes 
0 1 0 0 0 1 0 Yes 
0 0 0 0 1 0 0 Yes 
0 1 1 0 1 0 1 Yes 
0 1 0 0 1 1 0 Yes 
0 0 1 0 1 0 1 Yes 
0 0 0 0 1 0 0 Yes 
0 1 0 0 1 0 0 Yes 
0 1 0 0 0 1 0 Yes 
0 0 0 0 0 0 1 Yes 
Results: 90 / 100
Results: 40 / 100
1 1 0 0 0 1 1 Yes 
0 0 0 0 1 1 1 Yes 
0 0 0 1 1 1 0 Yes 
1 1 0 1 1 1 0 No 
1 0 0 1 0 1 0 No 
1 1 1 1 1 1 0 No 
0 0 1 1 0 1 0 Yes 
1 1 1 1 1 1 1 Yes 
1 0 1 0 1 0 1 Yes 
0 1 1 1 0 0 1 No 
1 1 0 1 0 0 0 No 
0 0 1 1 0 0 0 No 
1 0 1 0 1 0 0 No 
1 0 0 1 0 1 1 No 
1 0 1 0 0 1 1 Yes 
0 0 0 0 1 1 0 Yes 
0 0 1 1 1 1 1 Yes 
0 1 0 1 0 1 1 Yes 
1 0 1 1 1 1 1 Yes 
0 0 1 1 1 0 1 No 
0 0 0 1 0 0 1 No 
0 0 0 1 1 0 1 No 
0 1 0 0 1 1 0 Yes 
0 0 1 1 0 1 0 Yes 
1 1 0 1 1 1 1 Yes 
1 0 0 0 1 0 0 No 
0 0 1 0 0 1 0 Yes 
1 0 1 1 0 0 1 No 
0 1 1 1 1 0 0 No 
1 1 1 1 0 1 0 No 
1 1 1 1 0 1 0 No 
1 0 1 0 0 1 1 Yes 
1 1 1 1 0 0 0 No 
1 1 1 1 0 0 1 No 
0 0 0 1 0 0 1 No 
0 1 0 0 0 1 0 Yes 
0 1 1 1 0 1 0 Yes 
0 1 1 0 0 0 1 Yes 
1 0 0 1 0 0 0 No 
1 1 1 0 0 0 0 Yes 
1 1 0 0 0 0 1 Yes 
1 0 1 0 1 1 0 No 
0 0 1 0 1 0 1 Yes 
1 0 1 1 1 0 1 Yes 
0 1 0 0 0 1 0 Yes 
0 0 1 0 1 0 1 Yes 
1 1 0 0 0 1 1 Yes 
0 1 0 0 0 0 1 Yes 
1 0 1 0 0 0 0 Yes 
1 1 0 0 0 1 1 Yes 
0 0 0 0 1 1 1 Yes 
0 0 0 1 1 1 0 Yes 
1 1 0 1 1 1 0 No 
1 0 0 1 0 1 0 No 
1 1 1 1 1 1 0 No 
0 0 1 1 0 1 0 Yes 
1 1 1 1 1 1 1 Yes 
1 0 1 0 1 0 1 Yes 
0 1 1 1 0 0 1 No 
1 1 0 1 0 0 0 No 
0 0 1 1 0 0 0 No 
1 0 1 0 1 0 0 No 
1 0 0 1 0 1 1 No 
1 0 1 0 0 1 1 Yes 
0 0 0 0 1 1 0 Yes 
0 0 1 1 1 1 1 Yes 
0 1 0 1 0 1 1 Yes 
1 0 1 1 1 1 1 Yes 
0 0 1 1 1 0 1 No 
0 0 0 1 0 0 1 No 
0 0 0 1 1 0 1 No 
0 1 0 0 1 1 0 Yes 
0 0 1 1 0 1 0 Yes 
1 1 0 1 1 1 1 Yes 
1 0 0 0 1 0 0 No 
0 0 1 0 0 1 0 Yes 
1 0 1 1 0 0 1 No 
0 1 1 1 1 0 0 No 
1 1 1 1 0 1 0 No 
1 1 1 1 0 1 0 No 
1 0 1 0 0 1 1 Yes 
1 1 1 1 0 0 0 No 
1 1 1 1 0 0 1 No 
0 0 0 1 0 0 1 No 
0 1 0 0 0 1 0 Yes 
0 1 1 1 0 1 0 Yes 
0 1 1 0 0 0 1 Yes 
1 0 0 1 0 0 0 No 
1 1 1 0 0 0 0 Yes 
1 1 0 0 0 0 1 Yes 
1 0 1 0 1 1 0 No 
0 0 1 0 1 0 1 Yes 
1 0 1 1 1 0 1 Yes 
0 1 0 0 0 1 0 Yes 
0 0 1 0 1 0 1 Yes 
1 1 0 0 0 1 1 Yes 
0 1 0 0 0 0 1 Yes 
1 0 1 0 0 0 0 Yes 
0 0 0 1 1 1 0 Yes 
1 1 0 1 1 1 0 No 
1 0 0 1 0 1 0 No 
1 1 1 1 1 1 0 No 
0 0 1 1 0 1 0 Yes 
1 1 1 1 1 1 1 Yes 
0 1 1 1 0 0 1 No 
1 1 0 1 0 0 0 No 
0 0 1 1 0 0 0 No 
1 0 0 1 0 1 1 No 
0 0 1 1 1 1 1 Yes 
0 1 0 1 0 1 1 Yes 
1 0 1 1 1 1 1 Yes 
0 0 1 1 1 0 1 No 
0 0 0 1 0 0 1 No 
0 0 0 1 1 0 1 No 
0 0 1 1 0 1 0 Yes 
1 1 0 1 1 1 1 Yes 
1 0 1 1 0 0 1 No 
0 1 1 1 1 0 0 No 
1 1 1 1 0 1 0 No 
1 1 1 1 0 1 0 No 
1 1 1 1 0 0 0 No 
1 1 1 1 0 0 1 No 
0 0 0 1 0 0 1 No 
0 1 1 1 0 1 0 Yes 
1 0 0 1 0 0 0 No 
1 0 1 1 1 0 1 Yes 
0 0 0 1 1 1 0 Yes 
1 1 0 1 1 1 0 No 
1 0 0 1 0 1 0 No 
1 1 1 1 1 1 0 No 
0 0 1 1 0 1 0 Yes 
1 1 1 1 1 1 1 Yes 
1 0 0 1 0 1 1 No 
0 0 1 1 1 1 1 Yes 
0 1 0 1 0 1 1 Yes 
1 0 1 1 1 1 1 Yes 
0 0 1 1 0 1 0 Yes 
1 1 0 1 1 1 1 Yes 
1 1 1 1 0 1 0 No 
1 1 1 1 0 1 0 No 
0 1 1 1 0 1 0 Yes 
1 1 0 1 1 1 0 No 
1 0 0 1 0 1 0 No 
1 1 1 1 1 1 0 No 
1 1 1 1 1 1 1 Yes 
1 0 0 1 0 1 1 No 
1 0 1 1 1 1 1 Yes 
1 1 0 1 1 1 1 Yes 
1 1 1 1 0 1 0 No 
1 1 1 1 0 1 0 No 
1 1 0 1 1 1 0 No 
1 0 0 1 0 1 0 No 
1 1 1 1 1 1 0 No 
1 1 1 1 0 1 0 No 
1 1 1 1 0 1 0 No 
1 1 1 1 1 1 1 Yes 
1 0 0 1 0 1 1 No 
1 0 1 1 1 1 1 Yes 
1 1 0 1 1 1 1 Yes 
1 1 1 1 1 1 1 Yes 
1 0 1 1 1 1 1 Yes 
1 1 0 1 1 1 1 Yes 
1 0 0 1 0 1 1 No 
0 0 0 1 1 1 0 Yes 
0 0 1 1 0 1 0 Yes 
0 0 1 1 1 1 1 Yes 
0 1 0 1 0 1 1 Yes 
0 0 1 1 0 1 0 Yes 
0 1 1 1 0 1 0 Yes 
0 1 1 1 0 0 1 No 
1 1 0 1 0 0 0 No 
0 0 1 1 0 0 0 No 
0 0 1 1 1 0 1 No 
0 0 0 1 0 0 1 No 
0 0 0 1 1 0 1 No 
1 0 1 1 0 0 1 No 
0 1 1 1 1 0 0 No 
1 1 1 1 0 0 0 No 
1 1 1 1 0 0 1 No 
0 0 0 1 0 0 1 No 
1 0 0 1 0 0 0 No 
1 0 1 1 1 0 1 Yes 
0 0 1 1 1 0 1 No 
0 0 0 1 1 0 1 No 
0 1 1 1 1 0 0 No 
1 0 1 1 1 0 1 Yes 
1 0 1 1 1 0 1 Yes 
0 0 1 1 1 0 1 No 
0 0 0 1 1 0 1 No 
0 1 1 1 1 0 0 No 
0 1 1 1 0 0 1 No 
1 1 0 1 0 0 0 No 
0 0 1 1 0 0 0 No 
0 0 0 1 0 0 1 No 
1 0 1 1 0 0 1 No 
1 1 1 1 0 0 0 No 
1 1 1 1 0 0 1 No 
0 0 0 1 0 0 1 No 
1 0 0 1 0 0 0 No 
1 1 0 0 0 1 1 Yes 
0 0 0 0 1 1 1 Yes 
1 0 1 0 1 0 1 Yes 
1 0 1 0 1 0 0 No 
1 0 1 0 0 1 1 Yes 
0 0 0 0 1 1 0 Yes 
0 1 0 0 1 1 0 Yes 
1 0 0 0 1 0 0 No 
0 0 1 0 0 1 0 Yes 
1 0 1 0 0 1 1 Yes 
0 1 0 0 0 1 0 Yes 
0 1 1 0 0 0 1 Yes 
1 1 1 0 0 0 0 Yes 
1 1 0 0 0 0 1 Yes 
1 0 1 0 1 1 0 No 
0 0 1 0 1 0 1 Yes 
0 1 0 0 0 1 0 Yes 
0 0 1 0 1 0 1 Yes 
1 1 0 0 0 1 1 Yes 
0 1 0 0 0 0 1 Yes 
1 0 1 0 0 0 0 Yes 
0 0 0 0 1 1 1 Yes 
1 0 1 0 1 0 1 Yes 
1 0 1 0 1 0 0 No 
0 0 0 0 1 1 0 Yes 
0 1 0 0 1 1 0 Yes 
1 0 0 0 1 0 0 No 
1 0 1 0 1 1 0 No 
0 0 1 0 1 0 1 Yes 
0 0 1 0 1 0 1 Yes 
1 0 1 0 1 0 1 Yes 
1 0 1 0 1 0 0 No 
1 0 0 0 1 0 0 No 
1 0 1 0 1 1 0 No 
1 0 1 0 1 0 0 No 
1 0 0 0 1 0 0 No 
1 0 1 0 1 1 0 No 
1 0 1 0 1 0 1 Yes 
0 0 0 0 1 1 1 Yes 
0 0 0 0 1 1 0 Yes 
0 1 0 0 1 1 0 Yes 
0 0 1 0 1 0 1 Yes 
0 0 1 0 1 0 1 Yes 
1 1 0 0 0 1 1 Yes 
1 0 1 0 0 1 1 Yes 
0 0 1 0 0 1 0 Yes 
1 0 1 0 0 1 1 Yes 
0 1 0 0 0 1 0 Yes 
0 1 1 0 0 0 1 Yes 
1 1 1 0 0 0 0 Yes 
1 1 0 0 0 0 1 Yes 
0 1 0 0 0 1 0 Yes 
1 1 0 0 0 1 1 Yes 
0 1 0 0 0 0 1 Yes 
1 0 1 0 0 0 0 Yes 
Results: 96 / 100
Results: 40 / 100
Results: 40 / 100
0 1 1 1 1 0 0 No 
0 1 1 1 1 0 0 No 
Results: 40 / 100


Test case 50
0 1 0 0 1 1 0 Yes 
0 0 1 1 0 1 0 Yes 
0 1 0 0 1 1 0 Yes 
0 0 1 1 0 1 0 Yes 
Results: 60 / 100
1 0 0 0 1 0 0 No 
0 1 1 0 1 0 1 Yes 
1 1 0 1 1 1 1 Yes 
0 1 0 0 0 1 0 Yes 
1 1 1 1 1 0 0 No 
1 0 0 0 1 0 0 No 
0 1 1 0 1 0 1 Yes 
1 1 0 1 1 1 1 Yes 
0 1 0 0 0 1 0 Yes 
1 1 1 1 1 0 0 No 
1 0 0 0 1 0 0 No 
1 1 0 1 1 1 1 Yes 
1 1 1 1 1 0 0 No 
1 1 0 1 1 1 1 Yes 
1 0 0 0 1 0 0 No 
1 1 1 1 1 0 0 No 
0 1 1 0 1 0 1 Yes 
0 1 0 0 0 1 0 Yes 
Results: 65 / 100
0 0 1 1 0 0 0 No 
0 1 1 0 1 0 1 Yes 
1 0 0 1 0 0 0 No 
1 1 0 0 0 1 1 Yes 
1 0 1 1 1 0 1 Yes 
0 0 0 1 1 0 1 No 
1 1 1 1 0 0 0 No 
0 0 1 0 1 0 1 Yes 
0 0 1 0 1 1 0 Yes 
0 1 0 1 0 1 0 Yes 
0 0 1 1 0 0 0 No 
0 1 1 0 1 0 1 Yes 
1 0 0 1 0 0 0 No 
1 1 0 0 0 1 1 Yes 
1 0 1 1 1 0 1 Yes 
0 0 0 1 1 0 1 No 
1 1 1 1 0 0 0 No 
0 0 1 0 1 0 1 Yes 
0 0 1 0 1 1 0 Yes 
0 1 0 1 0 1 0 Yes 
0 0 1 1 0 0 0 No 
1 0 0 1 0 0 0 No 
1 0 1 1 1 0 1 Yes 
0 0 0 1 1 0 1 No 
1 1 1 1 0 0 0 No 
0 1 0 1 0 1 0 Yes 
0 1 0 1 0 1 0 Yes 
0 0 1 1 0 0 0 No 
1 0 0 1 0 0 0 No 
1 0 1 1 1 0 1 Yes 
0 0 0 1 1 0 1 No 
1 1 1 1 0 0 0 No 
1 0 1 1 1 0 1 Yes 
0 0 0 1 1 0 1 No 
1 0 1 1 1 0 1 Yes 
0 0 0 1 1 0 1 No 
0 0 1 1 0 0 0 No 
1 0 0 1 0 0 0 No 
1 1 1 1 0 0 0 No 
0 1 1 0 1 0 1 Yes 
1 1 0 0 0 1 1 Yes 
0 0 1 0 1 0 1 Yes 
0 0 1 0 1 1 0 Yes 
Results: 82 / 100
0 0 1 1 1 1 0 Yes 
1 0 1 1 1 0 1 Yes 
1 0 0 1 0 0 0 No 
0 1 1 0 1 1 1 Yes 
0 0 1 0 0 1 0 Yes 
0 0 0 1 1 0 0 No 
0 0 1 1 1 1 1 Yes 
0 0 1 1 1 1 0 Yes 
0 1 1 1 0 0 1 No 
0 1 0 0 0 1 0 Yes 
0 0 0 1 1 0 1 No 
0 1 0 1 1 0 1 No 
1 1 1 1 0 0 0 No 
1 1 0 1 1 1 1 Yes 
0 0 1 0 1 0 0 Yes 
0 1 0 0 1 0 1 Yes 
1 1 1 1 1 1 0 No 
1 1 0 0 0 1 1 Yes 
0 0 1 1 0 0 0 No 
0 1 0 0 1 0 0 Yes 
0 0 1 1 1 1 0 Yes 
1 0 1 1 1 0 1 Yes 
1 0 0 1 0 0 0 No 
0 1 1 0 1 1 1 Yes 
0 0 1 0 0 1 0 Yes 
0 0 0 1 1 0 0 No 
0 0 1 1 1 1 1 Yes 
0 0 1 1 1 1 0 Yes 
0 1 1 1 0 0 1 No 
0 1 0 0 0 1 0 Yes 
0 0 0 1 1 0 1 No 
0 1 0 1 1 0 1 No 
1 1 1 1 0 0 0 No 
1 1 0 1 1 1 1 Yes 
0 0 1 0 1 0 0 Yes 
0 1 0 0 1 0 1 Yes 
1 1 1 1 1 1 0 No 
1 1 0 0 0 1 1 Yes 
0 0 1 1 0 0 0 No 
0 1 0 0 1 0 0 Yes 
0 0 1 1 1 1 0 Yes 
1 0 1 1 1 0 1 Yes 
1 0 0 1 0 0 0 No 
0 0 0 1 1 0 0 No 
0 0 1 1 1 1 1 Yes 
0 0 1 1 1 1 0 Yes 
0 1 1 1 0 0 1 No 
0 0 0 1 1 0 1 No 
0 1 0 1 1 0 1 No 
1 1 1 1 0 0 0 No 
1 1 0 1 1 1 1 Yes 
1 1 1 1 1 1 0 No 
0 0 1 1 0 0 0 No 
0 0 1 1 1 1 0 Yes 
0 0 1 1 1 1 1 Yes 
0 0 1 1 1 1 0 Yes 
1 1 0 1 1 1 1 Yes 
1 1 1 1 1 1 0 No 
1 1 0 1 1 1 1 Yes 
1 1 1 1 1 1 0 No 
1 1 0 1 1 1 1 Yes 
1 1 1 1 1 1 0 No 
0 0 1 1 1 1 0 Yes 
0 0 1 1 1 1 1 Yes 
0 0 1 1 1 1 0 Yes 
1 0 1 1 1 0 1 Yes 
1 0 0 1 0 0 0 No 
0 0 0 1 1 0 0 No 
0 1 1 1 0 0 1 No 
0 0 0 1 1 0 1 No 
0 1 0 1 1 0 1 No 
1 1 1 1 0 0 0 No 
0 0 1 1 0 0 0 No 
1 0 1 1 1 0 1 Yes 
1 0 0 1 0 0 0 No 
1 1 1 1 0 0 0 No 
1 0 1 1 1 0 1 Yes 
1 0 0 1 0 0 0 No 
1 1 1 1 0 0 0 No 
0 0 0 1 1 0 0 No 
0 1 1 1 0 0 1 No 
0 0 0 1 1 0 1 No 
0 1 0 1 1 0 1 No 
0 0 1 1 0 0 0 No 
0 1 1 0 1 1 1 Yes 
0 0 1 0 0 1 0 Yes 
0 1 0 0 0 1 0 Yes 
0 0 1 0 1 0 0 Yes 
0 1 0 0 1 0 1 Yes 
1 1 0 0 0 1 1 Yes 
0 1 0 0 1 0 0 Yes 
Results: 84 / 100
0 0 0 0 1 1 1 Yes 
1 0 1 1 1 1 1 Yes 
0 1 1 1 0 1 0 Yes 
0 0 1 1 0 1 0 Yes 
0 1 1 1 0 0 1 No 
0 1 0 0 0 0 1 Yes 
0 1 0 0 1 1 0 Yes 
0 1 0 0 1 0 0 Yes 
1 0 1 0 1 1 1 Yes 
1 0 1 0 0 1 1 Yes 
0 1 1 0 0 1 0 Yes 
1 1 1 1 1 1 0 No 
0 0 1 1 1 0 0 No 
0 0 0 1 1 1 0 Yes 
1 1 1 0 0 0 0 Yes 
1 1 0 0 0 0 1 Yes 
1 0 0 1 0 1 0 No 
1 1 0 1 1 1 0 No 
1 0 0 1 0 0 0 No 
0 0 0 1 1 0 1 No 
0 0 1 1 1 0 1 No 
0 0 0 0 1 0 0 Yes 
0 1 1 0 1 1 1 Yes 
1 0 0 1 1 1 0 No 
0 1 0 1 0 1 0 Yes 
1 0 1 1 0 0 1 No 
0 1 0 1 1 1 0 Yes 
0 0 1 1 1 1 0 Yes 
0 1 0 0 1 0 1 Yes 
0 0 0 1 1 0 1 No 
0 1 0 0 1 1 1 Yes 
0 0 0 1 1 0 1 No 
0 0 1 0 1 1 1 Yes 
1 0 0 1 1 0 0 No 
0 0 0 1 0 0 1 No 
0 0 1 0 0 0 1 Yes 
1 0 0 1 0 0 0 No 
0 1 1 0 1 0 1 Yes 
1 1 0 1 0 1 1 No 
1 1 0 1 1 0 0 No 
1 1 0 1 1 1 1 Yes 
1 1 1 1 1 0 0 No 
1 0 1 1 0 0 1 No 
1 1 0 0 0 1 1 Yes 
0 0 1 0 1 0 1 Yes 
0 1 0 0 1 1 0 Yes 
0 1 0 0 0 1 0 Yes 
1 1 0 1 0 0 0 No 
1 0 1 1 1 0 0 No 
0 0 1 0 1 0 0 Yes 
0 0 0 0 1 1 1 Yes 
1 0 1 1 1 1 1 Yes 
0 1 1 1 0 1 0 Yes 
0 0 1 1 0 1 0 Yes 
0 1 1 1 0 0 1 No 
0 1 0 0 0 0 1 Yes 
0 1 0 0 1 1 0 Yes 
0 1 0 0 1 0 0 Yes 
1 0 1 0 1 1 1 Yes 
1 0 1 0 0 1 1 Yes 
0 1 1 0 0 1 0 Yes 
1 1 1 1 1 1 0 No 
0 0 1 1 1 0 0 No 
0 0 0 1 1 1 0 Yes 
1 1 1 0 0 0 0 Yes 
1 1 0 0 0 0 1 Yes 
1 0 0 1 0 1 0 No 
1 1 0 1 1 1 0 No 
1 0 0 1 0 0 0 No 
0 0 0 1 1 0 1 No 
0 0 1 1 1 0 1 No 
0 0 0 0 1 0 0 Yes 
0 1 1 0 1 1 1 Yes 
1 0 0 1 1 1 0 No 
0 1 0 1 0 1 0 Yes 
1 0 1 1 0 0 1 No 
0 1 0 1 1 1 0 Yes 
0 0 1 1 1 1 0 Yes 
0 1 0 0 1 0 1 Yes 
0 0 0 1 1 0 1 No 
0 1 0 0 1 1 1 Yes 
0 0 0 1 1 0 1 No 
0 0 1 0 1 1 1 Yes 
1 0 0 1 1 0 0 No 
0 0 0 1 0 0 1 No 
0 0 1 0 0 0 1 Yes 
1 0 0 1 0 0 0 No 
0 1 1 0 1 0 1 Yes 
1 1 0 1 0 1 1 No 
1 1 0 1 1 0 0 No 
1 1 0 1 1 1 1 Yes 
1 1 1 1 1 0 0 No 
1 0 1 1 0 0 1 No 
1 1 0 0 0 1 1 Yes 
0 0 1 0 1 0 1 Yes 
0 1 0 0 1 1 0 Yes 
0 1 0 0 0 1 0 Yes 
1 1 0 1 0 0 0 No 
1 0 1 1 1 0 0 No 
0 0 1 0 1 0 0 Yes 
1 0 1 1 1 1 1 Yes 
0 1 1 1 0 1 0 Yes 
0 0 1 1 0 1 0 Yes 
0 1 1 1 0 0 1 No 
1 1 1 1 1 1 0 No 
0 0 1 1 1 0 0 No 
0 0 0 1 1 1 0 Yes 
1 0 0 1 0 1 0 No 
1 1 0 1 1 1 0 No 
1 0 0 1 0 0 0 No 
0 0 0 1 1 0 1 No 
0 0 1 1 1 0 1 No 
1 0 0 1 1 1 0 No 
0 1 0 1 0 1 0 Yes 
1 0 1 1 0 0 1 No 
0 1 0 1 1 1 0 Yes 
0 0 1 1 1 1 0 Yes 
0 0 0 1 1 0 1 No 
0 0 0 1 1 0 1 No 
1 0 0 1 1 0 0 No 
0 0 0 1 0 0 1 No 
1 0 0 1 0 0 0 No 
1 1 0 1 0 1 1 No 
1 1 0 1 1 0 0 No 
1 1 0 1 1 1 1 Yes 
1 1 1 1 1 0 0 No 
1 0 1 1 0 0 1 No 
1 1 0 1 0 0 0 No 
1 0 1 1 1 0 0 No 
1 0 1 1 1 1 1 Yes 
0 1 1 1 0 1 0 Yes 
0 0 1 1 0 1 0 Yes 
1 1 1 1 1 1 0 No 
0 0 0 1 1 1 0 Yes 
1 0 0 1 0 1 0 No 
1 1 0 1 1 1 0 No 
1 0 0 1 1 1 0 No 
0 1 0 1 0 1 0 Yes 
0 1 0 1 1 1 0 Yes 
0 0 1 1 1 1 0 Yes 
1 1 0 1 0 1 1 No 
1 1 0 1 1 1 1 Yes 
1 0 1 1 1 1 1 Yes 
1 1 1 1 1 1 0 No 
1 0 0 1 0 1 0 No 
1 1 0 1 1 1 0 No 
1 0 0 1 1 1 0 No 
1 1 0 1 0 1 1 No 
1 1 0 1 1 1 1 Yes 
1 1 1 1 1 1 0 No 
1 0 0 1 0 1 0 No 
1 1 0 1 1 1 0 No 
1 0 0 1 1 1 0 No 
1 0 1 1 1 1 1 Yes 
1 1 0 1 0 1 1 No 
1 1 0 1 1 1 1 Yes 
1 0 1 1 1 1 1 Yes 
1 1 0 1 1 1 1 Yes 
1 1 0 1 0 1 1 No 
0 1 1 1 0 1 0 Yes 
0 0 1 1 0 1 0 Yes 
0 0 0 1 1 1 0 Yes 
0 1 0 1 0 1 0 Yes 
0 1 0 1 1 1 0 Yes 
0 0 1 1 1 1 0 Yes 
0 1 1 1 0 0 1 No 
0 0 1 1 1 0 0 No 
1 0 0 1 0 0 0 No 
0 0 0 1 1 0 1 No 
0 0 1 1 1 0 1 No 
1 0 1 1 0 0 1 No 
0 0 0 1 1 0 1 No 
0 0 0 1 1 0 1 No 
1 0 0 1 1 0 0 No 
0 0 0 1 0 0 1 No 
1 0 0 1 0 0 0 No 
1 1 0 1 1 0 0 No 
1 1 1 1 1 0 0 No 
1 0 1 1 0 0 1 No 
1 1 0 1 0 0 0 No 
1 0 1 1 1 0 0 No 
0 0 0 0 1 1 1 Yes 
0 1 0 0 0 0 1 Yes 
0 1 0 0 1 1 0 Yes 
0 1 0 0 1 0 0 Yes 
1 0 1 0 1 1 1 Yes 
1 0 1 0 0 1 1 Yes 
0 1 1 0 0 1 0 Yes 
1 1 1 0 0 0 0 Yes 
1 1 0 0 0 0 1 Yes 
0 0 0 0 1 0 0 Yes 
0 1 1 0 1 1 1 Yes 
0 1 0 0 1 0 1 Yes 
0 1 0 0 1 1 1 Yes 
0 0 1 0 1 1 1 Yes 
0 0 1 0 0 0 1 Yes 
0 1 1 0 1 0 1 Yes 
1 1 0 0 0 1 1 Yes 
0 0 1 0 1 0 1 Yes 
0 1 0 0 1 1 0 Yes 
0 1 0 0 0 1 0 Yes 
0 0 1 0 1 0 0 Yes 
Results: 94 / 100
Results: 40 / 100
0 1 0 0 0 0 1 Yes 
1 0 1 0 0 1 1 Yes 
0 0 0 0 1 0 0 Yes 
0 0 1 0 1 1 1 Yes 
1 1 0 1 0 0 0 No 
0 0 0 1 0 0 1 No 
1 0 0 0 0 1 1 Yes 
0 1 1 1 0 0 1 No 
0 0 1 1 1 0 1 No 
0 0 0 1 1 0 1 No 
0 0 0 0 0 0 0 Yes 
0 0 0 0 0 0 1 Yes 
0 1 0 0 1 1 1 Yes 
0 0 1 1 1 1 1 Yes 
0 1 0 0 0 1 0 Yes 
1 1 1 1 0 0 0 No 
0 0 0 0 1 1 1 Yes 
1 0 1 1 1 1 1 Yes 
0 0 0 1 1 1 0 Yes 
1 1 0 1 0 1 1 No 
1 1 1 1 0 0 1 No 
0 0 0 1 1 0 1 No 
1 1 1 1 0 1 0 No 
0 0 0 0 1 0 0 Yes 
1 1 1 1 1 1 0 No 
0 0 0 1 1 0 1 No 
1 0 0 1 1 1 0 No 
1 0 0 0 1 0 0 No 
1 0 1 0 1 1 0 No 
0 1 0 1 1 1 0 Yes 
0 0 1 1 0 0 0 No 
0 0 1 1 1 0 0 No 
1 1 0 1 1 1 0 No 
0 1 0 0 1 0 0 Yes 
1 0 1 0 0 1 1 Yes 
1 0 1 1 1 0 0 No 
0 0 1 1 1 1 0 Yes 
0 1 1 0 1 1 1 Yes 
1 1 0 0 0 0 1 Yes 
1 0 1 1 0 0 1 No 
1 1 0 0 0 1 1 Yes 
1 1 0 1 1 0 0 No 
0 1 0 1 1 0 1 No 
0 0 0 0 1 1 0 Yes 
1 1 1 1 1 1 1 Yes 
1 0 0 1 0 0 0 No 
0 0 0 1 0 0 0 No 
0 1 1 0 0 0 1 Yes 
0 1 1 0 0 1 0 Yes 
0 1 0 0 0 0 1 Yes 
1 0 1 0 0 1 1 Yes 
0 0 0 0 1 0 0 Yes 
0 0 1 0 1 1 1 Yes 
1 1 0 1 0 0 0 No 
0 0 0 1 0 0 1 No 
1 0 0 0 0 1 1 Yes 
0 1 1 1 0 0 1 No 
0 0 1 1 1 0 1 No 
0 0 0 1 1 0 1 No 
0 0 0 0 0 0 0 Yes 
0 0 0 0 0 0 1 Yes 
0 1 0 0 1 1 1 Yes 
0 0 1 1 1 1 1 Yes 
0 1 0 0 0 1 0 Yes 
1 1 1 1 0 0 0 No 
0 0 0 0 1 1 1 Yes 
1 0 1 1 1 1 1 Yes 
0 0 0 1 1 1 0 Yes 
1 1 0 1 0 1 1 No 
1 1 1 1 0 0 1 No 
0 0 0 1 1 0 1 No 
1 1 1 1 0 1 0 No 
0 0 0 0 1 0 0 Yes 
1 1 1 1 1 1 0 No 
0 0 0 1 1 0 1 No 
1 0 0 1 1 1 0 No 
1 0 0 0 1 0 0 No 
1 0 1 0 1 1 0 No 
0 1 0 1 1 1 0 Yes 
0 0 1 1 0 0 0 No 
0 0 1 1 1 0 0 No 
1 1 0 1 1 1 0 No 
0 1 0 0 1 0 0 Yes 
1 0 1 0 0 1 1 Yes 
1 0 1 1 1 0 0 No 
0 0 1 1 1 1 0 Yes 
0 1 1 0 1 1 1 Yes 
1 1 0 0 0 0 1 Yes 
1 0 1 1 0 0 1 No 
1 1 0 0 0 1 1 Yes 
1 1 0 1 1 0 0 No 
0 1 0 1 1 0 1 No 
0 0 0 0 1 1 0 Yes 
1 1 1 1 1 1 1 Yes 
1 0 0 1 0 0 0 No 
0 0 0 1 0 0 0 No 
0 1 1 0 0 0 1 Yes 
0 1 1 0 0 1 0 Yes 
1 1 0 1 0 0 0 No 
0 0 0 1 0 0 1 No 
0 1 1 1 0 0 1 No 
0 0 1 1 1 0 1 No 
0 0 0 1 1 0 1 No 
0 0 1 1 1 1 1 Yes 
1 1 1 1 0 0 0 No 
1 0 1 1 1 1 1 Yes 
0 0 0 1 1 1 0 Yes 
1 1 0 1 0 1 1 No 
1 1 1 1 0 0 1 No 
0 0 0 1 1 0 1 No 
1 1 1 1 0 1 0 No 
1 1 1 1 1 1 0 No 
0 0 0 1 1 0 1 No 
1 0 0 1 1 1 0 No 
0 1 0 1 1 1 0 Yes 
0 0 1 1 0 0 0 No 
0 0 1 1 1 0 0 No 
1 1 0 1 1 1 0 No 
1 0 1 1 1 0 0 No 
0 0 1 1 1 1 0 Yes 
1 0 1 1 0 0 1 No 
1 1 0 1 1 0 0 No 
0 1 0 1 1 0 1 No 
1 1 1 1 1 1 1 Yes 
1 0 0 1 0 0 0 No 
0 0 0 1 0 0 0 No 
0 0 1 1 1 1 1 Yes 
1 0 1 1 1 1 1 Yes 
0 0 0 1 1 1 0 Yes 
1 1 0 1 0 1 1 No 
1 1 1 1 0 1 0 No 
1 1 1 1 1 1 0 No 
1 0 0 1 1 1 0 No 
0 1 0 1 1 1 0 Yes 
1 1 0 1 1 1 0 No 
0 0 1 1 1 1 0 Yes 
1 1 1 1 1 1 1 Yes 
1 0 1 1 1 1 1 Yes 
1 1 0 1 0 1 1 No 
1 1 1 1 0 1 0 No 
1 1 1 1 1 1 0 No 
1 0 0 1 1 1 0 No 
1 1 0 1 1 1 0 No 
1 1 1 1 1 1 1 Yes 
1 1 1 1 0 1 0 No 
1 1 1 1 1 1 0 No 
1 0 0 1 1 1 0 No 
1 1 0 1 1 1 0 No 
1 0 1 1 1 1 1 Yes 
1 1 0 1 0 1 1 No 
1 1 1 1 1 1 1 Yes 
1 1 0 1 0 1 1 No 
1 0 1 1 1 1 1 Yes 
1 1 1 1 1 1 1 Yes 
0 0 1 1 1 1 1 Yes 
0 0 0 1 1 1 0 Yes 
0 1 0 1 1 1 0 Yes 
0 0 1 1 1 1 0 Yes 
1 1 0 1 0 0 0 No 
0 0 0 1 0 0 1 No 
0 1 1 1 0 0 1 No 
0 0 1 1 1 0 1 No 
0 0 0 1 1 0 1 No 
1 1 1 1 0 0 0 No 
1 1 1 1 0 0 1 No 
0 0 0 1 1 0 1 No 
0 0 0 1 1 0 1 No 
0 0 1 1 0 0 0 No 
0 0 1 1 1 0 0 No 
1 0 1 1 1 0 0 No 
1 0 1 1 0 0 1 No 
1 1 0 1 1 0 0 No 
0 1 0 1 1 0 1 No 
1 0 0 1 0 0 0 No 
0 0 0 1 0 0 0 No 
0 1 0 0 0 0 1 Yes 
1 0 1 0 0 1 1 Yes 
0 0 0 0 1 0 0 Yes 
0 0 1 0 1 1 1 Yes 
1 0 0 0 0 1 1 Yes 
0 0 0 0 0 0 0 Yes 
0 0 0 0 0 0 1 Yes 
0 1 0 0 1 1 1 Yes 
0 1 0 0 0 1 0 Yes 
0 0 0 0 1 1 1 Yes 
0 0 0 0 1 0 0 Yes 
1 0 0 0 1 0 0 No 
1 0 1 0 1 1 0 No 
0 1 0 0 1 0 0 Yes 
1 0 1 0 0 1 1 Yes 
0 1 1 0 1 1 1 Yes 
1 1 0 0 0 0 1 Yes 
1 1 0 0 0 1 1 Yes 
0 0 0 0 1 1 0 Yes 
0 1 1 0 0 0 1 Yes 
0 1 1 0 0 1 0 Yes 
1 0 1 0 0 1 1 Yes 
1 0 0 0 0 1 1 Yes 
1 0 0 0 1 0 0 No 
1 0 1 0 1 1 0 No 
1 0 1 0 0 1 1 Yes 
1 1 0 0 0 0 1 Yes 
1 1 0 0 0 1 1 Yes 
1 0 0 0 1 0 0 No 
1 0 1 0 1 1 0 No 
1 0 1 0 0 1 1 Yes 
1 0 0 0 0 1 1 Yes 
1 0 1 0 0 1 1 Yes 
1 1 0 0 0 0 1 Yes 
1 1 0 0 0 1 1 Yes 
0 1 0 0 0 0 1 Yes 
0 0 0 0 1 0 0 Yes 
0 0 1 0 1 1 1 Yes 
0 0 0 0 0 0 0 Yes 
0 0 0 0 0 0 1 Yes 
0 1 0 0 1 1 1 Yes 
0 1 0 0 0 1 0 Yes 
0 0 0 0 1 1 1 Yes 
0 0 0 0 1 0 0 Yes 
0 1 0 0 1 0 0 Yes 
0 1 1 0 1 1 1 Yes 
0 0 0 0 1 1 0 Yes 
0 1 1 0 0 0 1 Yes 
0 1 1 0 0 1 0 Yes 
Results: 93 / 100
Results: 40 / 100
Results: 40 / 100
0 0 1 1 0 1 0 Yes 
0 0 1 1 0 1 0 Yes 
Results: 60 / 100
